    eff_1   THREAD 	    eps_1 	    eps_2 	      Eff 	 maxDepth 	       Time
      140      190 	       40 	       40 	 0.600751 	        3 	  27.059170
      160      190 	       60 	       40 	 0.561439 	        3 	  26.598949
      170      190 	       70 	       40 	 0.491493 	        4 	  41.515987
      180      190 	       80 	       40 	 0.468312 	        4 	  42.275437
      190      190 	       90 	       40 	 0.436398 	        5 	  62.135135
