    eff_1   THREAD 	    eps_1 	    eps_2 	      Eff 	 maxDepth 	       Time
      150      100 	       50 	       90 	 0.709953 	        3 	 120683.086827
      160      100 	       60 	       90 	 0.731289 	        3 	 122013.627262
      170      100 	       70 	       90 	 0.730971 	        3 	 118057.007788
      180      100 	       80 	       90 	 0.552498 	        3 	 122568.814164
      190      100 	       90 	       90 	 0.525686 	        4 	 127567.158023
