Threads,mat_1,mat_2,mat_3,mat_4,mat_5,mat_6,mat_7,mat_8,mat_9,mat_10,mat_11,mat_12,mat_13,mat_14,mat_15,mat_16,mat_17,mat_18,mat_19,mat_20,mat_21,mat_22,mat_23,mat_24,mat_25,mat_26,mat_27,mat_28,mat_29,mat_30,mat_31
2,0.988419,0.984924,0.984793,0.99906,0.984268,0.999803,0.985011,0.994461,0.985882,0.987827,0.988845,0.923177,0.963728,0.998584,0.984744,0.999838,0.967117,0.994481,0.992391,0.957567,0.965765,0.979238,0.988589,0.99228,0.950953,0.999025,0.996297,0.957881,0.9949,0.96137,0.999299
4,0.980351,0.966216,0.957377,0.997883,0.867004,0.997587,0.964476,0.97731,0.954911,0.926751,0.979446,0.926596,0.881659,0.992425,0.955567,0.999434,0.953451,0.982576,0.968159,0.90745,0.91481,0.969714,0.954879,0.955372,0.854108,0.997082,0.987269,0.923135,0.929874,0.946213,0.996696
6,0.961502,0.886318,0.959914,0.991213,0.835691,0.994491,0.93046,0.959932,0.915472,0.913629,0.970094,0.899534,0.874749,0.985799,0.942571,0.999025,0.883796,0.957726,0.941014,0.889667,0.905915,0.973458,0.90007,0.960479,0.784117,0.997297,0.974501,0.750174,0.911165,0.920409,0.995865
8,0.949687,0.851114,0.932534,0.978773,0.736334,0.994981,0.923657,0.925305,0.885877,0.863339,0.942288,0.754999,0.766801,0.979779,0.922294,0.997955,0.8743,0.934955,0.910982,0.720044,0.88661,0.947411,0.840615,0.931335,0.838375,0.993803,0.93982,0.712075,0.863466,0.900132,0.992536
10,0.931372,0.848181,0.933529,0.979281,0.558241,0.993633,0.883079,0.917858,0.855968,0.860305,0.949517,0.705268,0.711787,0.974713,0.874241,0.997867,0.837614,0.88162,0.933084,0.808087,0.744086,0.944448,0.852916,0.894149,0.68873,0.990515,0.949038,0.684904,0.851007,0.873786,0.988677
13,0.927379,0.710745,0.871875,0.965618,0.699354,0.98797,0.849532,0.87742,0.72285,0.777055,0.908231,0.710699,0.682534,0.970276,0.862555,0.997614,0.77699,0.860015,0.869203,0.670359,0.759424,0.910325,0.744102,0.840827,0.780982,0.995106,0.942426,0.747822,0.745992,0.858198,0.987642
16,0.889951,0.763152,0.884181,0.965694,0.609127,0.98261,0.768103,0.893141,0.627008,0.674833,0.903519,0.749638,0.756642,0.977811,0.690583,0.995756,0.650109,0.819731,0.835865,0.781949,0.703126,0.913634,0.753133,0.838433,0.814896,0.989137,0.898349,0.66826,0.683558,0.785767,0.981531
19,0.891657,0.819201,0.798643,0.927277,0.440088,0.979547,0.741437,0.836667,0.632888,0.719785,0.865737,0.718414,0.770154,0.946199,0.700916,0.995206,0.752048,0.714005,0.847938,0.716619,0.734723,0.868165,0.73689,0.820638,0.842511,0.985472,0.902887,0.786976,0.760805,0.709124,0.980922
25,0.853889,0.713947,0.799273,0.940324,0.339794,0.977433,0.719883,0.669339,0.631041,0.70096,0.799384,0.741007,0.719135,0.952997,0.706441,0.993197,0.687882,0.701691,0.76162,0.758929,0.780653,0.878504,0.718059,0.7445,0.7241,0.991001,0.867076,0.80686,0.750018,0.519592,0.973441
30,0.730613,0.739666,0.683587,0.962061,0.269381,0.972019,0.640477,0.624099,0.671808,0.630411,0.786155,0.733462,0.71835,0.914838,0.733679,0.990897,0.806576,0.745196,0.739953,0.658107,0.72686,0.748836,0.755896,0.722637,0.701469,0.97375,0.832066,0.70184,0.804122,0.739909,0.973133
35,0.717967,0.626137,0.736513,0.869202,0.230898,0.964565,0.742372,0.730699,0.667387,0.814326,0.73864,0.7411,0.746826,0.922613,0.722646,0.988039,0.712347,0.745513,0.739052,0.782147,0.582394,0.734536,0.772264,0.730603,0.651386,0.968076,0.759204,0.749276,0.759708,0.728073,0.966824
40,0.716397,0.690441,0.711907,0.882532,0.223367,0.9584,0.710162,0.717813,0.538014,0.766722,0.734397,0.691866,0.600952,0.922176,0.704095,0.987869,0.695233,0.695074,0.774237,0.798937,0.685518,0.711578,0.698577,0.707115,0.693436,0.983586,0.66552,0.719624,0.654874,0.775303,0.969162
45,0.722275,0.643381,0.765411,0.859388,0.179587,0.954569,0.687516,0.706483,0.606478,0.789434,0.762871,0.753976,0.690447,0.916925,0.637093,0.985885,0.754018,0.804034,0.729908,0.742285,0.581623,0.753473,0.716235,0.738721,0.621698,0.980532,0.73019,0.725029,0.708875,0.737183,0.960033
50,0.791707,0.687574,0.731948,0.895553,0.161628,0.94908,0.713594,0.815779,0.595155,0.717916,0.716284,0.761398,0.608236,0.853946,0.7571,0.985084,0.759791,0.691273,0.708824,0.696108,0.56791,0.735292,0.646482,0.74618,0.642803,0.956045,0.693013,0.719434,0.678528,0.771129,0.958661
60,0.683949,0.669487,0.729529,0.794604,0.150208,0.932291,0.500269,0.742943,0.495962,0.767164,0.697137,0.682362,0.57901,0.842166,0.704841,0.98048,0.696942,0.754246,0.730486,0.586401,0.703251,0.748235,0.73959,0.737391,0.543196,0.952789,0.746397,0.596751,0.608153,0.74686,0.942982
70,0.72708,0.679949,0.691782,0.744245,0.117007,0.918628,0.645073,0.787652,0.474384,0.727035,0.696262,0.525988,0.618053,0.8458,0.758214,0.978583,0.567048,0.752156,0.749827,0.683677,0.584541,0.734649,0.789678,0.722498,0.496823,0.971142,0.639769,0.623046,0.600059,0.70405,0.928277
80,0.696007,0.643862,0.745469,0.664994,0.103489,0.912146,0.649852,0.762872,0.442801,0.675038,0.708154,0.697756,0.589472,0.824911,0.573789,0.975129,0.713961,0.738583,0.70856,0.651181,0.553033,0.699134,0.747443,0.729617,0.568118,0.953134,0.737006,0.539986,0.519672,0.672548,0.93641
90,0.751861,0.585749,0.691608,0.854851,0.091005,0.904696,0.654573,0.739568,0.431773,0.647314,0.763173,0.591384,0.566368,0.837044,0.763991,0.970904,0.727711,0.786983,0.761478,0.599002,0.595673,0.679883,0.817242,0.69956,0.572954,0.936748,0.826104,0.549727,0.6109,0.713691,0.923266
100,0.708497,0.550902,0.716404,0.76482,0.081905,0.890421,0.564249,0.692265,0.455473,0.589192,0.65159,0.536634,0.585263,0.784191,0.671505,0.969955,0.690703,0.719926,0.696752,0.556423,0.623221,0.709953,0.749714,0.739297,0.609547,0.897006,0.731268,0.601534,0.526961,0.62489,0.918783
120,0.699274,0.668718,0.678762,0.695954,0.068254,0.864584,0.526629,0.656158,0.357803,0.591681,0.726136,0.644551,0.594162,0.718842,0.729959,0.960577,0.583517,0.80038,0.696467,0.568411,0.548813,0.717171,0.725129,0.671017,0.532835,0.924446,0.66961,0.650431,0.573107,0.580031,0.883054
140,0.742449,0.510774,0.754914,0.830388,0.058503,0.856568,0.608522,0.7081,0.287614,0.571144,0.615818,0.530451,0.594049,0.682055,0.791427,0.956815,0.640354,0.755821,0.71042,0.571386,0.593715,0.722044,0.704344,0.690394,0.566261,0.882909,0.526932,0.577836,0.503175,0.62036,0.893891
160,0.729475,0.605492,0.736785,0.78125,0.05119,0.827436,0.56997,0.672213,0.300223,0.586272,0.698968,0.530996,0.576438,0.770667,0.823234,0.949169,0.614416,0.708647,0.691589,0.54718,0.597027,0.678345,0.813373,0.738569,0.552648,0.863027,0.795553,0.587484,0.478491,0.571834,0.885882
180,0.728314,0.588016,0.66156,0.694191,0.045503,0.810444,0.534345,0.657251,0.279355,0.552272,0.656941,0.545491,0.529854,0.749826,0.794892,0.946906,0.556922,0.690422,0.729745,0.586377,0.581971,0.660623,0.743259,0.692632,0.575009,0.891985,0.765753,0.528853,0.498354,0.601774,0.825465
200,0.806721,0.629886,0.679267,0.729987,0.040952,0.817205,0.548178,0.609814,0.253309,0.490405,0.679341,0.604759,0.485243,0.781024,0.708006,0.933613,0.561484,0.739107,0.750906,0.612289,0.599006,0.718152,0.761152,0.717289,0.526102,0.847285,0.726878,0.592315,0.46144,0.617598,0.847746
