    eff_1   THREAD 	    eps_1 	    eps_2 	      Eff 	 maxDepth 	       Time
      150      100 	       50 	       50 	 0.709953 	        2 	 119068.186706
      160      100 	       60 	       50 	 0.757690 	        2 	 117748.823733
      170      100 	       70 	       50 	 0.730971 	        2 	 117252.233138
      180      100 	       80 	       50 	 0.650035 	        3 	 119047.569890
      190      100 	       90 	       50 	 0.626741 	        4 	 119436.179620
