%!PS-Adobe-3.0 EPSF-3.0
%%Title: glps_renderer figure
%%Creator: GL2PS 1.3.8, (C) 1999-2012 C. Geuzaine
%%For: Octave
%%CreationDate: Tue Apr 10 10:16:15 2018
%%LanguageLevel: 3
%%DocumentData: Clean7Bit
%%Pages: 1
%%BoundingBox: 0 0 576 433
%%EndComments
%%BeginProlog
/gl2psdict 64 dict def gl2psdict begin
0 setlinecap 0 setlinejoin
/tryPS3shading false def % set to false to force subdivision
/rThreshold 0.064 def % red component subdivision threshold
/gThreshold 0.034 def % green component subdivision threshold
/bThreshold 0.1 def % blue component subdivision threshold
/BD { bind def } bind def
/C  { setrgbcolor } BD
/G  { 0.082 mul exch 0.6094 mul add exch 0.3086 mul add neg 1.0 add setgray } BD
/W  { setlinewidth } BD
/FC { findfont exch /SH exch def SH scalefont setfont } BD
/SW { dup stringwidth pop } BD
/S  { FC moveto show } BD
/SBC{ FC moveto SW -2 div 0 rmoveto show } BD
/SBR{ FC moveto SW neg 0 rmoveto show } BD
/SCL{ FC moveto 0 SH -2 div rmoveto show } BD
/SCC{ FC moveto SW -2 div SH -2 div rmoveto show } BD
/SCR{ FC moveto SW neg SH -2 div rmoveto show } BD
/STL{ FC moveto 0 SH neg rmoveto show } BD
/STC{ FC moveto SW -2 div SH neg rmoveto show } BD
/STR{ FC moveto SW neg SH neg rmoveto show } BD
/FCT { FC translate 0 0 } BD
/SR  { gsave FCT moveto rotate show grestore } BD
/SBCR{ gsave FCT moveto rotate SW -2 div 0 rmoveto show grestore } BD
/SBRR{ gsave FCT moveto rotate SW neg 0 rmoveto show grestore } BD
/SCLR{ gsave FCT moveto rotate 0 SH -2 div rmoveto show grestore} BD
/SCCR{ gsave FCT moveto rotate SW -2 div SH -2 div rmoveto show grestore} BD
/SCRR{ gsave FCT moveto rotate SW neg SH -2 div rmoveto show grestore} BD
/STLR{ gsave FCT moveto rotate 0 SH neg rmoveto show grestore } BD
/STCR{ gsave FCT moveto rotate SW -2 div SH neg rmoveto show grestore } BD
/STRR{ gsave FCT moveto rotate SW neg SH neg rmoveto show grestore } BD
/P  { newpath 0.0 360.0 arc closepath fill } BD
/LS { newpath moveto } BD
/L  { lineto } BD
/LE { lineto stroke } BD
/T  { newpath moveto lineto lineto closepath fill } BD
/STshfill {
      /b1 exch def /g1 exch def /r1 exch def /y1 exch def /x1 exch def
      /b2 exch def /g2 exch def /r2 exch def /y2 exch def /x2 exch def
      /b3 exch def /g3 exch def /r3 exch def /y3 exch def /x3 exch def
      gsave << /ShadingType 4 /ColorSpace [/DeviceRGB]
      /DataSource [ 0 x1 y1 r1 g1 b1 0 x2 y2 r2 g2 b2 0 x3 y3 r3 g3 b3 ] >>
      shfill grestore } BD
/Tm { 3 -1 roll 8 -1 roll 13 -1 roll add add 3 div
      3 -1 roll 7 -1 roll 11 -1 roll add add 3 div
      3 -1 roll 6 -1 roll 9 -1 roll add add 3 div C T } BD
/STsplit {
      4 index 15 index add 0.5 mul
      4 index 15 index add 0.5 mul
      4 index 15 index add 0.5 mul
      4 index 15 index add 0.5 mul
      4 index 15 index add 0.5 mul
      5 copy 5 copy 25 15 roll
      9 index 30 index add 0.5 mul
      9 index 30 index add 0.5 mul
      9 index 30 index add 0.5 mul
      9 index 30 index add 0.5 mul
      9 index 30 index add 0.5 mul
      5 copy 5 copy 35 5 roll 25 5 roll 15 5 roll
      4 index 10 index add 0.5 mul
      4 index 10 index add 0.5 mul
      4 index 10 index add 0.5 mul
      4 index 10 index add 0.5 mul
      4 index 10 index add 0.5 mul
      5 copy 5 copy 40 5 roll 25 5 roll 15 5 roll 25 5 roll
      STnoshfill STnoshfill STnoshfill STnoshfill } BD
/STnoshfill {
      2 index 8 index sub abs rThreshold gt
      { STsplit }
      { 1 index 7 index sub abs gThreshold gt
        { STsplit }
        { dup 6 index sub abs bThreshold gt
          { STsplit }
          { 2 index 13 index sub abs rThreshold gt
            { STsplit }
            { 1 index 12 index sub abs gThreshold gt
              { STsplit }
              { dup 11 index sub abs bThreshold gt
                { STsplit }
                { 7 index 13 index sub abs rThreshold gt
                  { STsplit }
                  { 6 index 12 index sub abs gThreshold gt
                    { STsplit }
                    { 5 index 11 index sub abs bThreshold gt
                      { STsplit }
                      { Tm }
                      ifelse }
                    ifelse }
                  ifelse }
                ifelse }
              ifelse }
            ifelse }
          ifelse }
        ifelse }
      ifelse } BD
tryPS3shading
{ /shfill where
  { /ST { STshfill } BD }
  { /ST { STnoshfill } BD }
  ifelse }
{ /ST { STnoshfill } BD }
ifelse
end
%%EndProlog
%%BeginSetup
/DeviceRGB setcolorspace
gl2psdict begin
%%EndSetup
%%Page: 1 1
%%BeginPageSetup
%%EndPageSetup
mark
gsave
1.0 1.0 scale
1 1 1 C
74.88 400.6 521.28 48.52 74.88 48.52 T
74.88 400.6 521.28 400.6 521.28 48.52 T
0.5 W
[16 0] 0 setdash
0 0 0 C
74.88 48.52 LS
521.28 48.52 LE
74.88 400.6 LS
521.28 400.6 LE
74.88 48.52 LS
74.88 400.6 LE
521.28 48.52 LS
521.28 400.6 LE
74.88 48.52 LS
74.88 52.985 LE
74.88 400.6 LS
74.88 396.135 LE
143.557 48.52 LS
143.557 52.985 LE
143.557 400.6 LS
143.557 396.135 LE
212.234 48.52 LS
212.234 52.985 LE
212.234 400.6 LS
212.234 396.135 LE
280.911 48.52 LS
280.911 52.985 LE
280.911 400.6 LS
280.911 396.135 LE
349.588 48.52 LS
349.588 52.985 LE
349.588 400.6 LS
349.588 396.135 LE
418.265 48.52 LS
418.265 52.985 LE
418.265 400.6 LS
418.265 396.135 LE
486.942 48.52 LS
486.942 52.985 LE
486.942 400.6 LS
486.942 396.135 LE
(0) 74.88 43.5189 10 /Helvetica STC
(10) 143.557 43.5189 10 /Helvetica STC
(20) 212.234 43.5189 10 /Helvetica STC
(30) 280.911 43.5189 10 /Helvetica STC
(40) 349.588 43.5189 10 /Helvetica STC
(50) 418.265 43.5189 10 /Helvetica STC
(60) 486.942 43.5189 10 /Helvetica STC
74.88 400.6 LS
79.348 400.6 LE
521.28 400.6 LS
516.812 400.6 LE
74.88 346.434 LS
79.348 346.434 LE
521.28 346.434 LS
516.812 346.434 LE
74.88 292.268 LS
79.348 292.268 LE
521.28 292.268 LS
516.812 292.268 LE
74.88 238.102 LS
79.348 238.102 LE
521.28 238.102 LS
516.812 238.102 LE
74.88 183.935 LS
79.348 183.935 LE
521.28 183.935 LS
516.812 183.935 LE
74.88 129.769 LS
79.348 129.769 LE
521.28 129.769 LS
516.812 129.769 LE
74.88 75.6031 LS
79.348 75.6031 LE
521.28 75.6031 LS
516.812 75.6031 LE
(0) 69.8755 400.6 10 /Helvetica SCR
(10) 69.8755 346.434 10 /Helvetica SCR
(20) 69.8755 292.268 10 /Helvetica SCR
(30) 69.8755 238.102 10 /Helvetica SCR
(40) 69.8755 183.935 10 /Helvetica SCR
(50) 69.8755 129.769 10 /Helvetica SCR
(60) 69.8755 75.6031 10 /Helvetica SCR
[] 0 setdash
78.7477 395.183 LS
84.7477 395.183 LE
81.7477 398.183 LS
81.7477 392.183 LE
79.6264 397.305 LS
83.869 393.062 LE
79.6264 393.062 LS
83.869 397.305 LE
78.7477 389.767 LS
84.7477 389.767 LE
81.7477 392.767 LS
81.7477 386.767 LE
79.6264 391.888 LS
83.869 387.645 LE
79.6264 387.645 LS
83.869 391.888 LE
78.7477 351.85 LS
84.7477 351.85 LE
81.7477 354.85 LS
81.7477 348.85 LE
79.6264 353.972 LS
83.869 349.729 LE
79.6264 349.729 LS
83.869 353.972 LE
85.6154 395.183 LS
91.6154 395.183 LE
88.6154 398.183 LS
88.6154 392.183 LE
86.494 397.305 LS
90.7367 393.062 LE
86.494 393.062 LS
90.7367 397.305 LE
85.6154 389.767 LS
91.6154 389.767 LE
88.6154 392.767 LS
88.6154 386.767 LE
86.494 391.888 LS
90.7367 387.645 LE
86.494 387.645 LS
90.7367 391.888 LE
85.6154 384.35 LS
91.6154 384.35 LE
88.6154 387.35 LS
88.6154 381.35 LE
86.494 386.471 LS
90.7367 382.229 LE
86.494 382.229 LS
90.7367 386.471 LE
85.6154 351.85 LS
91.6154 351.85 LE
88.6154 354.85 LS
88.6154 348.85 LE
86.494 353.972 LS
90.7367 349.729 LE
86.494 349.729 LS
90.7367 353.972 LE
85.6154 346.434 LS
91.6154 346.434 LE
88.6154 349.434 LS
88.6154 343.434 LE
86.494 348.555 LS
90.7367 344.313 LE
86.494 344.313 LS
90.7367 348.555 LE
92.4831 389.767 LS
98.4831 389.767 LE
95.4831 392.767 LS
95.4831 386.767 LE
93.3618 391.888 LS
97.6044 387.645 LE
93.3618 387.645 LS
97.6044 391.888 LE
92.4831 384.35 LS
98.4831 384.35 LE
95.4831 387.35 LS
95.4831 381.35 LE
93.3618 386.471 LS
97.6044 382.229 LE
93.3618 382.229 LS
97.6044 386.471 LE
92.4831 378.934 LS
98.4831 378.934 LE
95.4831 381.934 LS
95.4831 375.934 LE
93.3618 381.055 LS
97.6044 376.812 LE
93.3618 376.812 LS
97.6044 381.055 LE
92.4831 346.434 LS
98.4831 346.434 LE
95.4831 349.434 LS
95.4831 343.434 LE
93.3618 348.555 LS
97.6044 344.313 LE
93.3618 344.313 LS
97.6044 348.555 LE
92.4831 341.017 LS
98.4831 341.017 LE
95.4831 344.017 LS
95.4831 338.017 LE
93.3618 343.139 LS
97.6044 338.896 LE
93.3618 338.896 LS
97.6044 343.139 LE
99.3508 384.35 LS
105.351 384.35 LE
102.351 387.35 LS
102.351 381.35 LE
100.229 386.471 LS
104.472 382.229 LE
100.229 382.229 LS
104.472 386.471 LE
99.3508 378.934 LS
105.351 378.934 LE
102.351 381.934 LS
102.351 375.934 LE
100.229 381.055 LS
104.472 376.812 LE
100.229 376.812 LS
104.472 381.055 LE
99.3508 373.517 LS
105.351 373.517 LE
102.351 376.517 LS
102.351 370.517 LE
100.229 375.638 LS
104.472 371.396 LE
100.229 371.396 LS
104.472 375.638 LE
99.3508 341.017 LS
105.351 341.017 LE
102.351 344.017 LS
102.351 338.017 LE
100.229 343.139 LS
104.472 338.896 LE
100.229 338.896 LS
104.472 343.139 LE
99.3508 335.601 LS
105.351 335.601 LE
102.351 338.601 LS
102.351 332.601 LE
100.229 337.722 LS
104.472 333.479 LE
100.229 333.479 LS
104.472 337.722 LE
106.218 378.934 LS
112.218 378.934 LE
109.218 381.934 LS
109.218 375.934 LE
107.097 381.055 LS
111.34 376.812 LE
107.097 376.812 LS
111.34 381.055 LE
106.218 373.517 LS
112.218 373.517 LE
109.218 376.517 LS
109.218 370.517 LE
107.097 375.638 LS
111.34 371.396 LE
107.097 371.396 LS
111.34 375.638 LE
106.218 368.1 LS
112.218 368.1 LE
109.218 371.1 LS
109.218 365.1 LE
107.097 370.222 LS
111.34 365.979 LE
107.097 365.979 LS
111.34 370.222 LE
106.218 335.601 LS
112.218 335.601 LE
109.218 338.601 LS
109.218 332.601 LE
107.097 337.722 LS
111.34 333.479 LE
107.097 333.479 LS
111.34 337.722 LE
106.218 330.184 LS
112.218 330.184 LE
109.218 333.184 LS
109.218 327.184 LE
107.097 332.305 LS
111.34 328.063 LE
107.097 328.063 LS
111.34 332.305 LE
113.086 373.517 LS
119.086 373.517 LE
116.086 376.517 LS
116.086 370.517 LE
113.965 375.638 LS
118.207 371.396 LE
113.965 371.396 LS
118.207 375.638 LE
113.086 368.1 LS
119.086 368.1 LE
116.086 371.1 LS
116.086 365.1 LE
113.965 370.222 LS
118.207 365.979 LE
113.965 365.979 LS
118.207 370.222 LE
113.086 362.684 LS
119.086 362.684 LE
116.086 365.684 LS
116.086 359.684 LE
113.965 364.805 LS
118.207 360.562 LE
113.965 360.562 LS
118.207 364.805 LE
113.086 330.184 LS
119.086 330.184 LE
116.086 333.184 LS
116.086 327.184 LE
113.965 332.305 LS
118.207 328.063 LE
113.965 328.063 LS
118.207 332.305 LE
113.086 324.767 LS
119.086 324.767 LE
116.086 327.767 LS
116.086 321.767 LE
113.965 326.889 LS
118.207 322.646 LE
113.965 322.646 LS
118.207 326.889 LE
119.954 368.1 LS
125.954 368.1 LE
122.954 371.1 LS
122.954 365.1 LE
120.833 370.222 LS
125.075 365.979 LE
120.833 365.979 LS
125.075 370.222 LE
119.954 362.684 LS
125.954 362.684 LE
122.954 365.684 LS
122.954 359.684 LE
120.833 364.805 LS
125.075 360.562 LE
120.833 360.562 LS
125.075 364.805 LE
119.954 357.267 LS
125.954 357.267 LE
122.954 360.267 LS
122.954 354.267 LE
120.833 359.388 LS
125.075 355.146 LE
120.833 355.146 LS
125.075 359.388 LE
119.954 324.767 LS
125.954 324.767 LE
122.954 327.767 LS
122.954 321.767 LE
120.833 326.889 LS
125.075 322.646 LE
120.833 322.646 LS
125.075 326.889 LE
119.954 319.351 LS
125.954 319.351 LE
122.954 322.351 LS
122.954 316.351 LE
120.833 321.472 LS
125.075 317.229 LE
120.833 317.229 LS
125.075 321.472 LE
126.822 362.684 LS
132.822 362.684 LE
129.822 365.684 LS
129.822 359.684 LE
127.7 364.805 LS
131.943 360.562 LE
127.7 360.562 LS
131.943 364.805 LE
126.822 357.267 LS
132.822 357.267 LE
129.822 360.267 LS
129.822 354.267 LE
127.7 359.388 LS
131.943 355.146 LE
127.7 355.146 LS
131.943 359.388 LE
126.822 313.934 LS
132.822 313.934 LE
129.822 316.934 LS
129.822 310.934 LE
127.7 316.055 LS
131.943 311.813 LE
127.7 311.813 LS
131.943 316.055 LE
133.689 395.183 LS
139.689 395.183 LE
136.689 398.183 LS
136.689 392.183 LE
134.568 397.305 LS
138.811 393.062 LE
134.568 393.062 LS
138.811 397.305 LE
133.689 389.767 LS
139.689 389.767 LE
136.689 392.767 LS
136.689 386.767 LE
134.568 391.888 LS
138.811 387.645 LE
134.568 387.645 LS
138.811 391.888 LE
133.689 351.85 LS
139.689 351.85 LE
136.689 354.85 LS
136.689 348.85 LE
134.568 353.972 LS
138.811 349.729 LE
134.568 349.729 LS
138.811 353.972 LE
133.689 346.434 LS
139.689 346.434 LE
136.689 349.434 LS
136.689 343.434 LE
134.568 348.555 LS
138.811 344.313 LE
134.568 344.313 LS
138.811 348.555 LE
133.689 313.934 LS
139.689 313.934 LE
136.689 316.934 LS
136.689 310.934 LE
134.568 316.055 LS
138.811 311.813 LE
134.568 311.813 LS
138.811 316.055 LE
133.689 308.518 LS
139.689 308.518 LE
136.689 311.518 LS
136.689 305.518 LE
134.568 310.639 LS
138.811 306.396 LE
134.568 306.396 LS
138.811 310.639 LE
140.557 389.767 LS
146.557 389.767 LE
143.557 392.767 LS
143.557 386.767 LE
141.436 391.888 LS
145.678 387.645 LE
141.436 387.645 LS
145.678 391.888 LE
140.557 384.35 LS
146.557 384.35 LE
143.557 387.35 LS
143.557 381.35 LE
141.436 386.471 LS
145.678 382.229 LE
141.436 382.229 LS
145.678 386.471 LE
140.557 351.85 LS
146.557 351.85 LE
143.557 354.85 LS
143.557 348.85 LE
141.436 353.972 LS
145.678 349.729 LE
141.436 349.729 LS
145.678 353.972 LE
140.557 346.434 LS
146.557 346.434 LE
143.557 349.434 LS
143.557 343.434 LE
141.436 348.555 LS
145.678 344.313 LE
141.436 344.313 LS
145.678 348.555 LE
140.557 341.017 LS
146.557 341.017 LE
143.557 344.017 LS
143.557 338.017 LE
141.436 343.139 LS
145.678 338.896 LE
141.436 338.896 LS
145.678 343.139 LE
140.557 308.518 LS
146.557 308.518 LE
143.557 311.518 LS
143.557 305.518 LE
141.436 310.639 LS
145.678 306.396 LE
141.436 306.396 LS
145.678 310.639 LE
140.557 303.101 LS
146.557 303.101 LE
143.557 306.101 LS
143.557 300.101 LE
141.436 305.222 LS
145.678 300.98 LE
141.436 300.98 LS
145.678 305.222 LE
147.425 384.35 LS
153.425 384.35 LE
150.425 387.35 LS
150.425 381.35 LE
148.303 386.471 LS
152.546 382.229 LE
148.303 382.229 LS
152.546 386.471 LE
147.425 378.934 LS
153.425 378.934 LE
150.425 381.934 LS
150.425 375.934 LE
148.303 381.055 LS
152.546 376.812 LE
148.303 376.812 LS
152.546 381.055 LE
147.425 346.434 LS
153.425 346.434 LE
150.425 349.434 LS
150.425 343.434 LE
148.303 348.555 LS
152.546 344.313 LE
148.303 344.313 LS
152.546 348.555 LE
147.425 341.017 LS
153.425 341.017 LE
150.425 344.017 LS
150.425 338.017 LE
148.303 343.139 LS
152.546 338.896 LE
148.303 338.896 LS
152.546 343.139 LE
147.425 335.601 LS
153.425 335.601 LE
150.425 338.601 LS
150.425 332.601 LE
148.303 337.722 LS
152.546 333.479 LE
148.303 333.479 LS
152.546 337.722 LE
147.425 303.101 LS
153.425 303.101 LE
150.425 306.101 LS
150.425 300.101 LE
148.303 305.222 LS
152.546 300.98 LE
148.303 300.98 LS
152.546 305.222 LE
147.425 297.684 LS
153.425 297.684 LE
150.425 300.684 LS
150.425 294.684 LE
148.303 299.806 LS
152.546 295.563 LE
148.303 295.563 LS
152.546 299.806 LE
154.292 378.934 LS
160.292 378.934 LE
157.292 381.934 LS
157.292 375.934 LE
155.171 381.055 LS
159.414 376.812 LE
155.171 376.812 LS
159.414 381.055 LE
154.292 373.517 LS
160.292 373.517 LE
157.292 376.517 LS
157.292 370.517 LE
155.171 375.638 LS
159.414 371.396 LE
155.171 371.396 LS
159.414 375.638 LE
154.292 341.017 LS
160.292 341.017 LE
157.292 344.017 LS
157.292 338.017 LE
155.171 343.139 LS
159.414 338.896 LE
155.171 338.896 LS
159.414 343.139 LE
154.292 335.601 LS
160.292 335.601 LE
157.292 338.601 LS
157.292 332.601 LE
155.171 337.722 LS
159.414 333.479 LE
155.171 333.479 LS
159.414 337.722 LE
154.292 330.184 LS
160.292 330.184 LE
157.292 333.184 LS
157.292 327.184 LE
155.171 332.305 LS
159.414 328.063 LE
155.171 328.063 LS
159.414 332.305 LE
154.292 297.684 LS
160.292 297.684 LE
157.292 300.684 LS
157.292 294.684 LE
155.171 299.806 LS
159.414 295.563 LE
155.171 295.563 LS
159.414 299.806 LE
154.292 292.268 LS
160.292 292.268 LE
157.292 295.268 LS
157.292 289.268 LE
155.171 294.389 LS
159.414 290.146 LE
155.171 290.146 LS
159.414 294.389 LE
161.16 373.517 LS
167.16 373.517 LE
164.16 376.517 LS
164.16 370.517 LE
162.039 375.638 LS
166.281 371.396 LE
162.039 371.396 LS
166.281 375.638 LE
161.16 368.1 LS
167.16 368.1 LE
164.16 371.1 LS
164.16 365.1 LE
162.039 370.222 LS
166.281 365.979 LE
162.039 365.979 LS
166.281 370.222 LE
161.16 335.601 LS
167.16 335.601 LE
164.16 338.601 LS
164.16 332.601 LE
162.039 337.722 LS
166.281 333.479 LE
162.039 333.479 LS
166.281 337.722 LE
161.16 330.184 LS
167.16 330.184 LE
164.16 333.184 LS
164.16 327.184 LE
162.039 332.305 LS
166.281 328.063 LE
162.039 328.063 LS
166.281 332.305 LE
161.16 324.767 LS
167.16 324.767 LE
164.16 327.767 LS
164.16 321.767 LE
162.039 326.889 LS
166.281 322.646 LE
162.039 322.646 LS
166.281 326.889 LE
161.16 292.268 LS
167.16 292.268 LE
164.16 295.268 LS
164.16 289.268 LE
162.039 294.389 LS
166.281 290.146 LE
162.039 290.146 LS
166.281 294.389 LE
161.16 286.851 LS
167.16 286.851 LE
164.16 289.851 LS
164.16 283.851 LE
162.039 288.972 LS
166.281 284.73 LE
162.039 284.73 LS
166.281 288.972 LE
168.028 368.1 LS
174.028 368.1 LE
171.028 371.1 LS
171.028 365.1 LE
168.906 370.222 LS
173.149 365.979 LE
168.906 365.979 LS
173.149 370.222 LE
168.028 362.684 LS
174.028 362.684 LE
171.028 365.684 LS
171.028 359.684 LE
168.906 364.805 LS
173.149 360.562 LE
168.906 360.562 LS
173.149 364.805 LE
168.028 330.184 LS
174.028 330.184 LE
171.028 333.184 LS
171.028 327.184 LE
168.906 332.305 LS
173.149 328.063 LE
168.906 328.063 LS
173.149 332.305 LE
168.028 324.767 LS
174.028 324.767 LE
171.028 327.767 LS
171.028 321.767 LE
168.906 326.889 LS
173.149 322.646 LE
168.906 322.646 LS
173.149 326.889 LE
168.028 319.351 LS
174.028 319.351 LE
171.028 322.351 LS
171.028 316.351 LE
168.906 321.472 LS
173.149 317.229 LE
168.906 317.229 LS
173.149 321.472 LE
168.028 286.851 LS
174.028 286.851 LE
171.028 289.851 LS
171.028 283.851 LE
168.906 288.972 LS
173.149 284.73 LE
168.906 284.73 LS
173.149 288.972 LE
168.028 281.434 LS
174.028 281.434 LE
171.028 284.434 LS
171.028 278.434 LE
168.906 283.556 LS
173.149 279.313 LE
168.906 279.313 LS
173.149 283.556 LE
174.895 362.684 LS
180.895 362.684 LE
177.895 365.684 LS
177.895 359.684 LE
175.774 364.805 LS
180.017 360.562 LE
175.774 360.562 LS
180.017 364.805 LE
174.895 357.267 LS
180.895 357.267 LE
177.895 360.267 LS
177.895 354.267 LE
175.774 359.388 LS
180.017 355.146 LE
175.774 355.146 LS
180.017 359.388 LE
174.895 324.767 LS
180.895 324.767 LE
177.895 327.767 LS
177.895 321.767 LE
175.774 326.889 LS
180.017 322.646 LE
175.774 322.646 LS
180.017 326.889 LE
174.895 319.351 LS
180.895 319.351 LE
177.895 322.351 LS
177.895 316.351 LE
175.774 321.472 LS
180.017 317.229 LE
175.774 317.229 LS
180.017 321.472 LE
174.895 313.934 LS
180.895 313.934 LE
177.895 316.934 LS
177.895 310.934 LE
175.774 316.055 LS
180.017 311.813 LE
175.774 311.813 LS
180.017 316.055 LE
174.895 281.434 LS
180.895 281.434 LE
177.895 284.434 LS
177.895 278.434 LE
175.774 283.556 LS
180.017 279.313 LE
175.774 279.313 LS
180.017 283.556 LE
174.895 276.018 LS
180.895 276.018 LE
177.895 279.018 LS
177.895 273.018 LE
175.774 278.139 LS
180.017 273.897 LE
175.774 273.897 LS
180.017 278.139 LE
181.763 357.267 LS
187.763 357.267 LE
184.763 360.267 LS
184.763 354.267 LE
182.642 359.388 LS
186.884 355.146 LE
182.642 355.146 LS
186.884 359.388 LE
181.763 319.351 LS
187.763 319.351 LE
184.763 322.351 LS
184.763 316.351 LE
182.642 321.472 LS
186.884 317.229 LE
182.642 317.229 LS
186.884 321.472 LE
181.763 313.934 LS
187.763 313.934 LE
184.763 316.934 LS
184.763 310.934 LE
182.642 316.055 LS
186.884 311.813 LE
182.642 311.813 LS
186.884 316.055 LE
181.763 270.601 LS
187.763 270.601 LE
184.763 273.601 LS
184.763 267.601 LE
182.642 272.723 LS
186.884 268.48 LE
182.642 268.48 LS
186.884 272.723 LE
188.631 351.85 LS
194.631 351.85 LE
191.631 354.85 LS
191.631 348.85 LE
189.509 353.972 LS
193.752 349.729 LE
189.509 349.729 LS
193.752 353.972 LE
188.631 346.434 LS
194.631 346.434 LE
191.631 349.434 LS
191.631 343.434 LE
189.509 348.555 LS
193.752 344.313 LE
189.509 344.313 LS
193.752 348.555 LE
188.631 308.518 LS
194.631 308.518 LE
191.631 311.518 LS
191.631 305.518 LE
189.509 310.639 LS
193.752 306.396 LE
189.509 306.396 LS
193.752 310.639 LE
188.631 303.101 LS
194.631 303.101 LE
191.631 306.101 LS
191.631 300.101 LE
189.509 305.222 LS
193.752 300.98 LE
189.509 300.98 LS
193.752 305.222 LE
188.631 270.601 LS
194.631 270.601 LE
191.631 273.601 LS
191.631 267.601 LE
189.509 272.723 LS
193.752 268.48 LE
189.509 268.48 LS
193.752 272.723 LE
188.631 265.185 LS
194.631 265.185 LE
191.631 268.185 LS
191.631 262.185 LE
189.509 267.306 LS
193.752 263.063 LE
189.509 263.063 LS
193.752 267.306 LE
195.498 346.434 LS
201.498 346.434 LE
198.498 349.434 LS
198.498 343.434 LE
196.377 348.555 LS
200.62 344.313 LE
196.377 344.313 LS
200.62 348.555 LE
195.498 341.017 LS
201.498 341.017 LE
198.498 344.017 LS
198.498 338.017 LE
196.377 343.139 LS
200.62 338.896 LE
196.377 338.896 LS
200.62 343.139 LE
195.498 308.518 LS
201.498 308.518 LE
198.498 311.518 LS
198.498 305.518 LE
196.377 310.639 LS
200.62 306.396 LE
196.377 306.396 LS
200.62 310.639 LE
195.498 303.101 LS
201.498 303.101 LE
198.498 306.101 LS
198.498 300.101 LE
196.377 305.222 LS
200.62 300.98 LE
196.377 300.98 LS
200.62 305.222 LE
195.498 297.684 LS
201.498 297.684 LE
198.498 300.684 LS
198.498 294.684 LE
196.377 299.806 LS
200.62 295.563 LE
196.377 295.563 LS
200.62 299.806 LE
195.498 265.185 LS
201.498 265.185 LE
198.498 268.185 LS
198.498 262.185 LE
196.377 267.306 LS
200.62 263.063 LE
196.377 263.063 LS
200.62 267.306 LE
195.498 259.768 LS
201.498 259.768 LE
198.498 262.768 LS
198.498 256.768 LE
196.377 261.889 LS
200.62 257.647 LE
196.377 257.647 LS
200.62 261.889 LE
202.366 341.017 LS
208.366 341.017 LE
205.366 344.017 LS
205.366 338.017 LE
203.245 343.139 LS
207.487 338.896 LE
203.245 338.896 LS
207.487 343.139 LE
202.366 335.601 LS
208.366 335.601 LE
205.366 338.601 LS
205.366 332.601 LE
203.245 337.722 LS
207.487 333.479 LE
203.245 333.479 LS
207.487 337.722 LE
202.366 303.101 LS
208.366 303.101 LE
205.366 306.101 LS
205.366 300.101 LE
203.245 305.222 LS
207.487 300.98 LE
203.245 300.98 LS
207.487 305.222 LE
202.366 297.684 LS
208.366 297.684 LE
205.366 300.684 LS
205.366 294.684 LE
203.245 299.806 LS
207.487 295.563 LE
203.245 295.563 LS
207.487 299.806 LE
202.366 292.268 LS
208.366 292.268 LE
205.366 295.268 LS
205.366 289.268 LE
203.245 294.389 LS
207.487 290.146 LE
203.245 290.146 LS
207.487 294.389 LE
202.366 259.768 LS
208.366 259.768 LE
205.366 262.768 LS
205.366 256.768 LE
203.245 261.889 LS
207.487 257.647 LE
203.245 257.647 LS
207.487 261.889 LE
202.366 254.351 LS
208.366 254.351 LE
205.366 257.351 LS
205.366 251.351 LE
203.245 256.473 LS
207.487 252.23 LE
203.245 252.23 LS
207.487 256.473 LE
209.234 335.601 LS
215.234 335.601 LE
212.234 338.601 LS
212.234 332.601 LE
210.113 337.722 LS
214.355 333.479 LE
210.113 333.479 LS
214.355 337.722 LE
209.234 330.184 LS
215.234 330.184 LE
212.234 333.184 LS
212.234 327.184 LE
210.113 332.305 LS
214.355 328.063 LE
210.113 328.063 LS
214.355 332.305 LE
209.234 297.684 LS
215.234 297.684 LE
212.234 300.684 LS
212.234 294.684 LE
210.113 299.806 LS
214.355 295.563 LE
210.113 295.563 LS
214.355 299.806 LE
209.234 292.268 LS
215.234 292.268 LE
212.234 295.268 LS
212.234 289.268 LE
210.113 294.389 LS
214.355 290.146 LE
210.113 290.146 LS
214.355 294.389 LE
209.234 286.851 LS
215.234 286.851 LE
212.234 289.851 LS
212.234 283.851 LE
210.113 288.972 LS
214.355 284.73 LE
210.113 284.73 LS
214.355 288.972 LE
209.234 254.351 LS
215.234 254.351 LE
212.234 257.351 LS
212.234 251.351 LE
210.113 256.473 LS
214.355 252.23 LE
210.113 252.23 LS
214.355 256.473 LE
209.234 248.935 LS
215.234 248.935 LE
212.234 251.935 LS
212.234 245.935 LE
210.113 251.056 LS
214.355 246.813 LE
210.113 246.813 LS
214.355 251.056 LE
216.102 330.184 LS
222.102 330.184 LE
219.102 333.184 LS
219.102 327.184 LE
216.98 332.305 LS
221.223 328.063 LE
216.98 328.063 LS
221.223 332.305 LE
216.102 324.767 LS
222.102 324.767 LE
219.102 327.767 LS
219.102 321.767 LE
216.98 326.889 LS
221.223 322.646 LE
216.98 322.646 LS
221.223 326.889 LE
216.102 292.268 LS
222.102 292.268 LE
219.102 295.268 LS
219.102 289.268 LE
216.98 294.389 LS
221.223 290.146 LE
216.98 290.146 LS
221.223 294.389 LE
216.102 286.851 LS
222.102 286.851 LE
219.102 289.851 LS
219.102 283.851 LE
216.98 288.972 LS
221.223 284.73 LE
216.98 284.73 LS
221.223 288.972 LE
216.102 281.434 LS
222.102 281.434 LE
219.102 284.434 LS
219.102 278.434 LE
216.98 283.556 LS
221.223 279.313 LE
216.98 279.313 LS
221.223 283.556 LE
216.102 248.935 LS
222.102 248.935 LE
219.102 251.935 LS
219.102 245.935 LE
216.98 251.056 LS
221.223 246.813 LE
216.98 246.813 LS
221.223 251.056 LE
216.102 243.518 LS
222.102 243.518 LE
219.102 246.518 LS
219.102 240.518 LE
216.98 245.639 LS
221.223 241.397 LE
216.98 241.397 LS
221.223 245.639 LE
222.969 324.767 LS
228.969 324.767 LE
225.969 327.767 LS
225.969 321.767 LE
223.848 326.889 LS
228.091 322.646 LE
223.848 322.646 LS
228.091 326.889 LE
222.969 319.351 LS
228.969 319.351 LE
225.969 322.351 LS
225.969 316.351 LE
223.848 321.472 LS
228.091 317.229 LE
223.848 317.229 LS
228.091 321.472 LE
222.969 286.851 LS
228.969 286.851 LE
225.969 289.851 LS
225.969 283.851 LE
223.848 288.972 LS
228.091 284.73 LE
223.848 284.73 LS
228.091 288.972 LE
222.969 281.434 LS
228.969 281.434 LE
225.969 284.434 LS
225.969 278.434 LE
223.848 283.556 LS
228.091 279.313 LE
223.848 279.313 LS
228.091 283.556 LE
222.969 276.018 LS
228.969 276.018 LE
225.969 279.018 LS
225.969 273.018 LE
223.848 278.139 LS
228.091 273.897 LE
223.848 273.897 LS
228.091 278.139 LE
222.969 243.518 LS
228.969 243.518 LE
225.969 246.518 LS
225.969 240.518 LE
223.848 245.639 LS
228.091 241.397 LE
223.848 241.397 LS
228.091 245.639 LE
222.969 238.102 LS
228.969 238.102 LE
225.969 241.102 LS
225.969 235.102 LE
223.848 240.223 LS
228.091 235.98 LE
223.848 235.98 LS
228.091 240.223 LE
229.837 319.351 LS
235.837 319.351 LE
232.837 322.351 LS
232.837 316.351 LE
230.716 321.472 LS
234.958 317.229 LE
230.716 317.229 LS
234.958 321.472 LE
229.837 313.934 LS
235.837 313.934 LE
232.837 316.934 LS
232.837 310.934 LE
230.716 316.055 LS
234.958 311.813 LE
230.716 311.813 LS
234.958 316.055 LE
229.837 281.434 LS
235.837 281.434 LE
232.837 284.434 LS
232.837 278.434 LE
230.716 283.556 LS
234.958 279.313 LE
230.716 279.313 LS
234.958 283.556 LE
229.837 276.018 LS
235.837 276.018 LE
232.837 279.018 LS
232.837 273.018 LE
230.716 278.139 LS
234.958 273.897 LE
230.716 273.897 LS
234.958 278.139 LE
229.837 270.601 LS
235.837 270.601 LE
232.837 273.601 LS
232.837 267.601 LE
230.716 272.723 LS
234.958 268.48 LE
230.716 268.48 LS
234.958 272.723 LE
229.837 238.102 LS
235.837 238.102 LE
232.837 241.102 LS
232.837 235.102 LE
230.716 240.223 LS
234.958 235.98 LE
230.716 235.98 LS
234.958 240.223 LE
229.837 232.685 LS
235.837 232.685 LE
232.837 235.685 LS
232.837 229.685 LE
230.716 234.806 LS
234.958 230.564 LE
230.716 230.564 LS
234.958 234.806 LE
236.705 313.934 LS
242.705 313.934 LE
239.705 316.934 LS
239.705 310.934 LE
237.583 316.055 LS
241.826 311.813 LE
237.583 311.813 LS
241.826 316.055 LE
236.705 276.018 LS
242.705 276.018 LE
239.705 279.018 LS
239.705 273.018 LE
237.583 278.139 LS
241.826 273.897 LE
237.583 273.897 LS
241.826 278.139 LE
236.705 270.601 LS
242.705 270.601 LE
239.705 273.601 LS
239.705 267.601 LE
237.583 272.723 LS
241.826 268.48 LE
237.583 268.48 LS
241.826 272.723 LE
236.705 227.268 LS
242.705 227.268 LE
239.705 230.268 LS
239.705 224.268 LE
237.583 229.39 LS
241.826 225.147 LE
237.583 225.147 LS
241.826 229.39 LE
243.572 308.518 LS
249.572 308.518 LE
246.572 311.518 LS
246.572 305.518 LE
244.451 310.639 LS
248.694 306.396 LE
244.451 306.396 LS
248.694 310.639 LE
243.572 303.101 LS
249.572 303.101 LE
246.572 306.101 LS
246.572 300.101 LE
244.451 305.222 LS
248.694 300.98 LE
244.451 300.98 LS
248.694 305.222 LE
243.572 265.185 LS
249.572 265.185 LE
246.572 268.185 LS
246.572 262.185 LE
244.451 267.306 LS
248.694 263.063 LE
244.451 263.063 LS
248.694 267.306 LE
243.572 259.768 LS
249.572 259.768 LE
246.572 262.768 LS
246.572 256.768 LE
244.451 261.889 LS
248.694 257.647 LE
244.451 257.647 LS
248.694 261.889 LE
243.572 227.268 LS
249.572 227.268 LE
246.572 230.268 LS
246.572 224.268 LE
244.451 229.39 LS
248.694 225.147 LE
244.451 225.147 LS
248.694 229.39 LE
243.572 221.852 LS
249.572 221.852 LE
246.572 224.852 LS
246.572 218.852 LE
244.451 223.973 LS
248.694 219.73 LE
244.451 219.73 LS
248.694 223.973 LE
250.44 303.101 LS
256.44 303.101 LE
253.44 306.101 LS
253.44 300.101 LE
251.319 305.222 LS
255.561 300.98 LE
251.319 300.98 LS
255.561 305.222 LE
250.44 297.684 LS
256.44 297.684 LE
253.44 300.684 LS
253.44 294.684 LE
251.319 299.806 LS
255.561 295.563 LE
251.319 295.563 LS
255.561 299.806 LE
250.44 265.185 LS
256.44 265.185 LE
253.44 268.185 LS
253.44 262.185 LE
251.319 267.306 LS
255.561 263.063 LE
251.319 263.063 LS
255.561 267.306 LE
250.44 259.768 LS
256.44 259.768 LE
253.44 262.768 LS
253.44 256.768 LE
251.319 261.889 LS
255.561 257.647 LE
251.319 257.647 LS
255.561 261.889 LE
250.44 254.351 LS
256.44 254.351 LE
253.44 257.351 LS
253.44 251.351 LE
251.319 256.473 LS
255.561 252.23 LE
251.319 252.23 LS
255.561 256.473 LE
250.44 221.852 LS
256.44 221.852 LE
253.44 224.852 LS
253.44 218.852 LE
251.319 223.973 LS
255.561 219.73 LE
251.319 219.73 LS
255.561 223.973 LE
250.44 216.435 LS
256.44 216.435 LE
253.44 219.435 LS
253.44 213.435 LE
251.319 218.556 LS
255.561 214.314 LE
251.319 214.314 LS
255.561 218.556 LE
257.308 297.684 LS
263.308 297.684 LE
260.308 300.684 LS
260.308 294.684 LE
258.186 299.806 LS
262.429 295.563 LE
258.186 295.563 LS
262.429 299.806 LE
257.308 292.268 LS
263.308 292.268 LE
260.308 295.268 LS
260.308 289.268 LE
258.186 294.389 LS
262.429 290.146 LE
258.186 290.146 LS
262.429 294.389 LE
257.308 259.768 LS
263.308 259.768 LE
260.308 262.768 LS
260.308 256.768 LE
258.186 261.889 LS
262.429 257.647 LE
258.186 257.647 LS
262.429 261.889 LE
257.308 254.351 LS
263.308 254.351 LE
260.308 257.351 LS
260.308 251.351 LE
258.186 256.473 LS
262.429 252.23 LE
258.186 252.23 LS
262.429 256.473 LE
257.308 248.935 LS
263.308 248.935 LE
260.308 251.935 LS
260.308 245.935 LE
258.186 251.056 LS
262.429 246.813 LE
258.186 246.813 LS
262.429 251.056 LE
257.308 216.435 LS
263.308 216.435 LE
260.308 219.435 LS
260.308 213.435 LE
258.186 218.556 LS
262.429 214.314 LE
258.186 214.314 LS
262.429 218.556 LE
257.308 211.018 LS
263.308 211.018 LE
260.308 214.018 LS
260.308 208.018 LE
258.186 213.14 LS
262.429 208.897 LE
258.186 208.897 LS
262.429 213.14 LE
264.175 292.268 LS
270.175 292.268 LE
267.175 295.268 LS
267.175 289.268 LE
265.054 294.389 LS
269.297 290.146 LE
265.054 290.146 LS
269.297 294.389 LE
264.175 286.851 LS
270.175 286.851 LE
267.175 289.851 LS
267.175 283.851 LE
265.054 288.972 LS
269.297 284.73 LE
265.054 284.73 LS
269.297 288.972 LE
264.175 254.351 LS
270.175 254.351 LE
267.175 257.351 LS
267.175 251.351 LE
265.054 256.473 LS
269.297 252.23 LE
265.054 252.23 LS
269.297 256.473 LE
264.175 248.935 LS
270.175 248.935 LE
267.175 251.935 LS
267.175 245.935 LE
265.054 251.056 LS
269.297 246.813 LE
265.054 246.813 LS
269.297 251.056 LE
264.175 243.518 LS
270.175 243.518 LE
267.175 246.518 LS
267.175 240.518 LE
265.054 245.639 LS
269.297 241.397 LE
265.054 241.397 LS
269.297 245.639 LE
264.175 211.018 LS
270.175 211.018 LE
267.175 214.018 LS
267.175 208.018 LE
265.054 213.14 LS
269.297 208.897 LE
265.054 208.897 LS
269.297 213.14 LE
264.175 205.602 LS
270.175 205.602 LE
267.175 208.602 LS
267.175 202.602 LE
265.054 207.723 LS
269.297 203.481 LE
265.054 203.481 LS
269.297 207.723 LE
271.043 286.851 LS
277.043 286.851 LE
274.043 289.851 LS
274.043 283.851 LE
271.922 288.972 LS
276.164 284.73 LE
271.922 284.73 LS
276.164 288.972 LE
271.043 281.434 LS
277.043 281.434 LE
274.043 284.434 LS
274.043 278.434 LE
271.922 283.556 LS
276.164 279.313 LE
271.922 279.313 LS
276.164 283.556 LE
271.043 248.935 LS
277.043 248.935 LE
274.043 251.935 LS
274.043 245.935 LE
271.922 251.056 LS
276.164 246.813 LE
271.922 246.813 LS
276.164 251.056 LE
271.043 243.518 LS
277.043 243.518 LE
274.043 246.518 LS
274.043 240.518 LE
271.922 245.639 LS
276.164 241.397 LE
271.922 241.397 LS
276.164 245.639 LE
271.043 238.102 LS
277.043 238.102 LE
274.043 241.102 LS
274.043 235.102 LE
271.922 240.223 LS
276.164 235.98 LE
271.922 235.98 LS
276.164 240.223 LE
271.043 205.602 LS
277.043 205.602 LE
274.043 208.602 LS
274.043 202.602 LE
271.922 207.723 LS
276.164 203.481 LE
271.922 203.481 LS
276.164 207.723 LE
271.043 200.185 LS
277.043 200.185 LE
274.043 203.185 LS
274.043 197.185 LE
271.922 202.307 LS
276.164 198.064 LE
271.922 198.064 LS
276.164 202.307 LE
277.911 281.434 LS
283.911 281.434 LE
280.911 284.434 LS
280.911 278.434 LE
278.789 283.556 LS
283.032 279.313 LE
278.789 279.313 LS
283.032 283.556 LE
277.911 276.018 LS
283.911 276.018 LE
280.911 279.018 LS
280.911 273.018 LE
278.789 278.139 LS
283.032 273.897 LE
278.789 273.897 LS
283.032 278.139 LE
277.911 243.518 LS
283.911 243.518 LE
280.911 246.518 LS
280.911 240.518 LE
278.789 245.639 LS
283.032 241.397 LE
278.789 241.397 LS
283.032 245.639 LE
277.911 238.102 LS
283.911 238.102 LE
280.911 241.102 LS
280.911 235.102 LE
278.789 240.223 LS
283.032 235.98 LE
278.789 235.98 LS
283.032 240.223 LE
277.911 232.685 LS
283.911 232.685 LE
280.911 235.685 LS
280.911 229.685 LE
278.789 234.806 LS
283.032 230.564 LE
278.789 230.564 LS
283.032 234.806 LE
277.911 200.185 LS
283.911 200.185 LE
280.911 203.185 LS
280.911 197.185 LE
278.789 202.307 LS
283.032 198.064 LE
278.789 198.064 LS
283.032 202.307 LE
277.911 194.769 LS
283.911 194.769 LE
280.911 197.769 LS
280.911 191.769 LE
278.789 196.89 LS
283.032 192.647 LE
278.789 192.647 LS
283.032 196.89 LE
284.778 276.018 LS
290.778 276.018 LE
287.778 279.018 LS
287.778 273.018 LE
285.657 278.139 LS
289.9 273.897 LE
285.657 273.897 LS
289.9 278.139 LE
284.778 270.601 LS
290.778 270.601 LE
287.778 273.601 LS
287.778 267.601 LE
285.657 272.723 LS
289.9 268.48 LE
285.657 268.48 LS
289.9 272.723 LE
284.778 238.102 LS
290.778 238.102 LE
287.778 241.102 LS
287.778 235.102 LE
285.657 240.223 LS
289.9 235.98 LE
285.657 235.98 LS
289.9 240.223 LE
284.778 232.685 LS
290.778 232.685 LE
287.778 235.685 LS
287.778 229.685 LE
285.657 234.806 LS
289.9 230.564 LE
285.657 230.564 LS
289.9 234.806 LE
284.778 227.268 LS
290.778 227.268 LE
287.778 230.268 LS
287.778 224.268 LE
285.657 229.39 LS
289.9 225.147 LE
285.657 225.147 LS
289.9 229.39 LE
284.778 194.769 LS
290.778 194.769 LE
287.778 197.769 LS
287.778 191.769 LE
285.657 196.89 LS
289.9 192.647 LE
285.657 192.647 LS
289.9 196.89 LE
284.778 189.352 LS
290.778 189.352 LE
287.778 192.352 LS
287.778 186.352 LE
285.657 191.473 LS
289.9 187.231 LE
285.657 187.231 LS
289.9 191.473 LE
291.646 270.601 LS
297.646 270.601 LE
294.646 273.601 LS
294.646 267.601 LE
292.525 272.723 LS
296.767 268.48 LE
292.525 268.48 LS
296.767 272.723 LE
291.646 232.685 LS
297.646 232.685 LE
294.646 235.685 LS
294.646 229.685 LE
292.525 234.806 LS
296.767 230.564 LE
292.525 230.564 LS
296.767 234.806 LE
291.646 227.268 LS
297.646 227.268 LE
294.646 230.268 LS
294.646 224.268 LE
292.525 229.39 LS
296.767 225.147 LE
292.525 225.147 LS
296.767 229.39 LE
291.646 183.935 LS
297.646 183.935 LE
294.646 186.935 LS
294.646 180.935 LE
292.525 186.057 LS
296.767 181.814 LE
292.525 181.814 LS
296.767 186.057 LE
298.514 265.185 LS
304.514 265.185 LE
301.514 268.185 LS
301.514 262.185 LE
299.393 267.306 LS
303.635 263.063 LE
299.393 263.063 LS
303.635 267.306 LE
298.514 259.768 LS
304.514 259.768 LE
301.514 262.768 LS
301.514 256.768 LE
299.393 261.889 LS
303.635 257.647 LE
299.393 257.647 LS
303.635 261.889 LE
298.514 221.852 LS
304.514 221.852 LE
301.514 224.852 LS
301.514 218.852 LE
299.393 223.973 LS
303.635 219.73 LE
299.393 219.73 LS
303.635 223.973 LE
298.514 216.435 LS
304.514 216.435 LE
301.514 219.435 LS
301.514 213.435 LE
299.393 218.556 LS
303.635 214.314 LE
299.393 214.314 LS
303.635 218.556 LE
298.514 183.935 LS
304.514 183.935 LE
301.514 186.935 LS
301.514 180.935 LE
299.393 186.057 LS
303.635 181.814 LE
299.393 181.814 LS
303.635 186.057 LE
298.514 178.519 LS
304.514 178.519 LE
301.514 181.519 LS
301.514 175.519 LE
299.393 180.64 LS
303.635 176.397 LE
299.393 176.397 LS
303.635 180.64 LE
305.382 259.768 LS
311.382 259.768 LE
308.382 262.768 LS
308.382 256.768 LE
306.26 261.889 LS
310.503 257.647 LE
306.26 257.647 LS
310.503 261.889 LE
305.382 254.351 LS
311.382 254.351 LE
308.382 257.351 LS
308.382 251.351 LE
306.26 256.473 LS
310.503 252.23 LE
306.26 252.23 LS
310.503 256.473 LE
305.382 221.852 LS
311.382 221.852 LE
308.382 224.852 LS
308.382 218.852 LE
306.26 223.973 LS
310.503 219.73 LE
306.26 219.73 LS
310.503 223.973 LE
305.382 216.435 LS
311.382 216.435 LE
308.382 219.435 LS
308.382 213.435 LE
306.26 218.556 LS
310.503 214.314 LE
306.26 214.314 LS
310.503 218.556 LE
305.382 211.018 LS
311.382 211.018 LE
308.382 214.018 LS
308.382 208.018 LE
306.26 213.14 LS
310.503 208.897 LE
306.26 208.897 LS
310.503 213.14 LE
305.382 178.519 LS
311.382 178.519 LE
308.382 181.519 LS
308.382 175.519 LE
306.26 180.64 LS
310.503 176.397 LE
306.26 176.397 LS
310.503 180.64 LE
305.382 173.102 LS
311.382 173.102 LE
308.382 176.102 LS
308.382 170.102 LE
306.26 175.223 LS
310.503 170.981 LE
306.26 170.981 LS
310.503 175.223 LE
312.249 254.351 LS
318.249 254.351 LE
315.249 257.351 LS
315.249 251.351 LE
313.128 256.473 LS
317.371 252.23 LE
313.128 252.23 LS
317.371 256.473 LE
312.249 248.935 LS
318.249 248.935 LE
315.249 251.935 LS
315.249 245.935 LE
313.128 251.056 LS
317.371 246.813 LE
313.128 246.813 LS
317.371 251.056 LE
312.249 216.435 LS
318.249 216.435 LE
315.249 219.435 LS
315.249 213.435 LE
313.128 218.556 LS
317.371 214.314 LE
313.128 214.314 LS
317.371 218.556 LE
312.249 211.018 LS
318.249 211.018 LE
315.249 214.018 LS
315.249 208.018 LE
313.128 213.14 LS
317.371 208.897 LE
313.128 208.897 LS
317.371 213.14 LE
312.249 205.602 LS
318.249 205.602 LE
315.249 208.602 LS
315.249 202.602 LE
313.128 207.723 LS
317.371 203.481 LE
313.128 203.481 LS
317.371 207.723 LE
312.249 173.102 LS
318.249 173.102 LE
315.249 176.102 LS
315.249 170.102 LE
313.128 175.223 LS
317.371 170.981 LE
313.128 170.981 LS
317.371 175.223 LE
312.249 167.686 LS
318.249 167.686 LE
315.249 170.686 LS
315.249 164.686 LE
313.128 169.807 LS
317.371 165.564 LE
313.128 165.564 LS
317.371 169.807 LE
319.117 248.935 LS
325.117 248.935 LE
322.117 251.935 LS
322.117 245.935 LE
319.996 251.056 LS
324.238 246.813 LE
319.996 246.813 LS
324.238 251.056 LE
319.117 243.518 LS
325.117 243.518 LE
322.117 246.518 LS
322.117 240.518 LE
319.996 245.639 LS
324.238 241.397 LE
319.996 241.397 LS
324.238 245.639 LE
319.117 211.018 LS
325.117 211.018 LE
322.117 214.018 LS
322.117 208.018 LE
319.996 213.14 LS
324.238 208.897 LE
319.996 208.897 LS
324.238 213.14 LE
319.117 205.602 LS
325.117 205.602 LE
322.117 208.602 LS
322.117 202.602 LE
319.996 207.723 LS
324.238 203.481 LE
319.996 203.481 LS
324.238 207.723 LE
319.117 200.185 LS
325.117 200.185 LE
322.117 203.185 LS
322.117 197.185 LE
319.996 202.307 LS
324.238 198.064 LE
319.996 198.064 LS
324.238 202.307 LE
319.117 167.686 LS
325.117 167.686 LE
322.117 170.686 LS
322.117 164.686 LE
319.996 169.807 LS
324.238 165.564 LE
319.996 165.564 LS
324.238 169.807 LE
319.117 162.269 LS
325.117 162.269 LE
322.117 165.269 LS
322.117 159.269 LE
319.996 164.39 LS
324.238 160.148 LE
319.996 160.148 LS
324.238 164.39 LE
325.985 243.518 LS
331.985 243.518 LE
328.985 246.518 LS
328.985 240.518 LE
326.863 245.639 LS
331.106 241.397 LE
326.863 241.397 LS
331.106 245.639 LE
325.985 238.102 LS
331.985 238.102 LE
328.985 241.102 LS
328.985 235.102 LE
326.863 240.223 LS
331.106 235.98 LE
326.863 235.98 LS
331.106 240.223 LE
325.985 205.602 LS
331.985 205.602 LE
328.985 208.602 LS
328.985 202.602 LE
326.863 207.723 LS
331.106 203.481 LE
326.863 203.481 LS
331.106 207.723 LE
325.985 200.185 LS
331.985 200.185 LE
328.985 203.185 LS
328.985 197.185 LE
326.863 202.307 LS
331.106 198.064 LE
326.863 198.064 LS
331.106 202.307 LE
325.985 194.769 LS
331.985 194.769 LE
328.985 197.769 LS
328.985 191.769 LE
326.863 196.89 LS
331.106 192.647 LE
326.863 192.647 LS
331.106 196.89 LE
325.985 162.269 LS
331.985 162.269 LE
328.985 165.269 LS
328.985 159.269 LE
326.863 164.39 LS
331.106 160.148 LE
326.863 160.148 LS
331.106 164.39 LE
325.985 156.852 LS
331.985 156.852 LE
328.985 159.852 LS
328.985 153.852 LE
326.863 158.974 LS
331.106 154.731 LE
326.863 154.731 LS
331.106 158.974 LE
332.852 238.102 LS
338.852 238.102 LE
335.852 241.102 LS
335.852 235.102 LE
333.731 240.223 LS
337.974 235.98 LE
333.731 235.98 LS
337.974 240.223 LE
332.852 232.685 LS
338.852 232.685 LE
335.852 235.685 LS
335.852 229.685 LE
333.731 234.806 LS
337.974 230.564 LE
333.731 230.564 LS
337.974 234.806 LE
332.852 200.185 LS
338.852 200.185 LE
335.852 203.185 LS
335.852 197.185 LE
333.731 202.307 LS
337.974 198.064 LE
333.731 198.064 LS
337.974 202.307 LE
332.852 194.769 LS
338.852 194.769 LE
335.852 197.769 LS
335.852 191.769 LE
333.731 196.89 LS
337.974 192.647 LE
333.731 192.647 LS
337.974 196.89 LE
332.852 189.352 LS
338.852 189.352 LE
335.852 192.352 LS
335.852 186.352 LE
333.731 191.473 LS
337.974 187.231 LE
333.731 187.231 LS
337.974 191.473 LE
332.852 156.852 LS
338.852 156.852 LE
335.852 159.852 LS
335.852 153.852 LE
333.731 158.974 LS
337.974 154.731 LE
333.731 154.731 LS
337.974 158.974 LE
332.852 151.436 LS
338.852 151.436 LE
335.852 154.436 LS
335.852 148.436 LE
333.731 153.557 LS
337.974 149.314 LE
333.731 149.314 LS
337.974 153.557 LE
339.72 232.685 LS
345.72 232.685 LE
342.72 235.685 LS
342.72 229.685 LE
340.599 234.806 LS
344.841 230.564 LE
340.599 230.564 LS
344.841 234.806 LE
339.72 227.268 LS
345.72 227.268 LE
342.72 230.268 LS
342.72 224.268 LE
340.599 229.39 LS
344.841 225.147 LE
340.599 225.147 LS
344.841 229.39 LE
339.72 194.769 LS
345.72 194.769 LE
342.72 197.769 LS
342.72 191.769 LE
340.599 196.89 LS
344.841 192.647 LE
340.599 192.647 LS
344.841 196.89 LE
339.72 189.352 LS
345.72 189.352 LE
342.72 192.352 LS
342.72 186.352 LE
340.599 191.473 LS
344.841 187.231 LE
340.599 187.231 LS
344.841 191.473 LE
339.72 183.935 LS
345.72 183.935 LE
342.72 186.935 LS
342.72 180.935 LE
340.599 186.057 LS
344.841 181.814 LE
340.599 181.814 LS
344.841 186.057 LE
339.72 151.436 LS
345.72 151.436 LE
342.72 154.436 LS
342.72 148.436 LE
340.599 153.557 LS
344.841 149.314 LE
340.599 149.314 LS
344.841 153.557 LE
339.72 146.019 LS
345.72 146.019 LE
342.72 149.019 LS
342.72 143.019 LE
340.599 148.14 LS
344.841 143.898 LE
340.599 143.898 LS
344.841 148.14 LE
346.588 227.268 LS
352.588 227.268 LE
349.588 230.268 LS
349.588 224.268 LE
347.466 229.39 LS
351.709 225.147 LE
347.466 225.147 LS
351.709 229.39 LE
346.588 189.352 LS
352.588 189.352 LE
349.588 192.352 LS
349.588 186.352 LE
347.466 191.473 LS
351.709 187.231 LE
347.466 187.231 LS
351.709 191.473 LE
346.588 183.935 LS
352.588 183.935 LE
349.588 186.935 LS
349.588 180.935 LE
347.466 186.057 LS
351.709 181.814 LE
347.466 181.814 LS
351.709 186.057 LE
346.588 140.602 LS
352.588 140.602 LE
349.588 143.602 LS
349.588 137.602 LE
347.466 142.724 LS
351.709 138.481 LE
347.466 138.481 LS
351.709 142.724 LE
353.455 221.852 LS
359.455 221.852 LE
356.455 224.852 LS
356.455 218.852 LE
354.334 223.973 LS
358.577 219.73 LE
354.334 219.73 LS
358.577 223.973 LE
353.455 216.435 LS
359.455 216.435 LE
356.455 219.435 LS
356.455 213.435 LE
354.334 218.556 LS
358.577 214.314 LE
354.334 214.314 LS
358.577 218.556 LE
353.455 178.519 LS
359.455 178.519 LE
356.455 181.519 LS
356.455 175.519 LE
354.334 180.64 LS
358.577 176.397 LE
354.334 176.397 LS
358.577 180.64 LE
353.455 173.102 LS
359.455 173.102 LE
356.455 176.102 LS
356.455 170.102 LE
354.334 175.223 LS
358.577 170.981 LE
354.334 170.981 LS
358.577 175.223 LE
353.455 140.602 LS
359.455 140.602 LE
356.455 143.602 LS
356.455 137.602 LE
354.334 142.724 LS
358.577 138.481 LE
354.334 138.481 LS
358.577 142.724 LE
353.455 135.186 LS
359.455 135.186 LE
356.455 138.186 LS
356.455 132.186 LE
354.334 137.307 LS
358.577 133.065 LE
354.334 133.065 LS
358.577 137.307 LE
360.323 216.435 LS
366.323 216.435 LE
363.323 219.435 LS
363.323 213.435 LE
361.202 218.556 LS
365.444 214.314 LE
361.202 214.314 LS
365.444 218.556 LE
360.323 211.018 LS
366.323 211.018 LE
363.323 214.018 LS
363.323 208.018 LE
361.202 213.14 LS
365.444 208.897 LE
361.202 208.897 LS
365.444 213.14 LE
360.323 178.519 LS
366.323 178.519 LE
363.323 181.519 LS
363.323 175.519 LE
361.202 180.64 LS
365.444 176.397 LE
361.202 176.397 LS
365.444 180.64 LE
360.323 173.102 LS
366.323 173.102 LE
363.323 176.102 LS
363.323 170.102 LE
361.202 175.223 LS
365.444 170.981 LE
361.202 170.981 LS
365.444 175.223 LE
360.323 167.686 LS
366.323 167.686 LE
363.323 170.686 LS
363.323 164.686 LE
361.202 169.807 LS
365.444 165.564 LE
361.202 165.564 LS
365.444 169.807 LE
360.323 135.186 LS
366.323 135.186 LE
363.323 138.186 LS
363.323 132.186 LE
361.202 137.307 LS
365.444 133.065 LE
361.202 133.065 LS
365.444 137.307 LE
360.323 129.769 LS
366.323 129.769 LE
363.323 132.769 LS
363.323 126.769 LE
361.202 131.891 LS
365.444 127.648 LE
361.202 127.648 LS
365.444 131.891 LE
367.191 211.018 LS
373.191 211.018 LE
370.191 214.018 LS
370.191 208.018 LE
368.069 213.14 LS
372.312 208.897 LE
368.069 208.897 LS
372.312 213.14 LE
367.191 205.602 LS
373.191 205.602 LE
370.191 208.602 LS
370.191 202.602 LE
368.069 207.723 LS
372.312 203.481 LE
368.069 203.481 LS
372.312 207.723 LE
367.191 173.102 LS
373.191 173.102 LE
370.191 176.102 LS
370.191 170.102 LE
368.069 175.223 LS
372.312 170.981 LE
368.069 170.981 LS
372.312 175.223 LE
367.191 167.686 LS
373.191 167.686 LE
370.191 170.686 LS
370.191 164.686 LE
368.069 169.807 LS
372.312 165.564 LE
368.069 165.564 LS
372.312 169.807 LE
367.191 162.269 LS
373.191 162.269 LE
370.191 165.269 LS
370.191 159.269 LE
368.069 164.39 LS
372.312 160.148 LE
368.069 160.148 LS
372.312 164.39 LE
367.191 129.769 LS
373.191 129.769 LE
370.191 132.769 LS
370.191 126.769 LE
368.069 131.891 LS
372.312 127.648 LE
368.069 127.648 LS
372.312 131.891 LE
367.191 124.353 LS
373.191 124.353 LE
370.191 127.353 LS
370.191 121.353 LE
368.069 126.474 LS
372.312 122.231 LE
368.069 122.231 LS
372.312 126.474 LE
374.058 205.602 LS
380.058 205.602 LE
377.058 208.602 LS
377.058 202.602 LE
374.937 207.723 LS
379.18 203.481 LE
374.937 203.481 LS
379.18 207.723 LE
374.058 200.185 LS
380.058 200.185 LE
377.058 203.185 LS
377.058 197.185 LE
374.937 202.307 LS
379.18 198.064 LE
374.937 198.064 LS
379.18 202.307 LE
374.058 167.686 LS
380.058 167.686 LE
377.058 170.686 LS
377.058 164.686 LE
374.937 169.807 LS
379.18 165.564 LE
374.937 165.564 LS
379.18 169.807 LE
374.058 162.269 LS
380.058 162.269 LE
377.058 165.269 LS
377.058 159.269 LE
374.937 164.39 LS
379.18 160.148 LE
374.937 160.148 LS
379.18 164.39 LE
374.058 156.852 LS
380.058 156.852 LE
377.058 159.852 LS
377.058 153.852 LE
374.937 158.974 LS
379.18 154.731 LE
374.937 154.731 LS
379.18 158.974 LE
374.058 124.353 LS
380.058 124.353 LE
377.058 127.353 LS
377.058 121.353 LE
374.937 126.474 LS
379.18 122.231 LE
374.937 122.231 LS
379.18 126.474 LE
374.058 118.936 LS
380.058 118.936 LE
377.058 121.936 LS
377.058 115.936 LE
374.937 121.057 LS
379.18 116.815 LE
374.937 116.815 LS
379.18 121.057 LE
380.926 200.185 LS
386.926 200.185 LE
383.926 203.185 LS
383.926 197.185 LE
381.805 202.307 LS
386.047 198.064 LE
381.805 198.064 LS
386.047 202.307 LE
380.926 194.769 LS
386.926 194.769 LE
383.926 197.769 LS
383.926 191.769 LE
381.805 196.89 LS
386.047 192.647 LE
381.805 192.647 LS
386.047 196.89 LE
380.926 162.269 LS
386.926 162.269 LE
383.926 165.269 LS
383.926 159.269 LE
381.805 164.39 LS
386.047 160.148 LE
381.805 160.148 LS
386.047 164.39 LE
380.926 156.852 LS
386.926 156.852 LE
383.926 159.852 LS
383.926 153.852 LE
381.805 158.974 LS
386.047 154.731 LE
381.805 154.731 LS
386.047 158.974 LE
380.926 151.436 LS
386.926 151.436 LE
383.926 154.436 LS
383.926 148.436 LE
381.805 153.557 LS
386.047 149.314 LE
381.805 149.314 LS
386.047 153.557 LE
380.926 118.936 LS
386.926 118.936 LE
383.926 121.936 LS
383.926 115.936 LE
381.805 121.057 LS
386.047 116.815 LE
381.805 116.815 LS
386.047 121.057 LE
380.926 113.519 LS
386.926 113.519 LE
383.926 116.519 LS
383.926 110.519 LE
381.805 115.641 LS
386.047 111.398 LE
381.805 111.398 LS
386.047 115.641 LE
387.794 194.769 LS
393.794 194.769 LE
390.794 197.769 LS
390.794 191.769 LE
388.673 196.89 LS
392.915 192.647 LE
388.673 192.647 LS
392.915 196.89 LE
387.794 189.352 LS
393.794 189.352 LE
390.794 192.352 LS
390.794 186.352 LE
388.673 191.473 LS
392.915 187.231 LE
388.673 187.231 LS
392.915 191.473 LE
387.794 156.852 LS
393.794 156.852 LE
390.794 159.852 LS
390.794 153.852 LE
388.673 158.974 LS
392.915 154.731 LE
388.673 154.731 LS
392.915 158.974 LE
387.794 151.436 LS
393.794 151.436 LE
390.794 154.436 LS
390.794 148.436 LE
388.673 153.557 LS
392.915 149.314 LE
388.673 149.314 LS
392.915 153.557 LE
387.794 146.019 LS
393.794 146.019 LE
390.794 149.019 LS
390.794 143.019 LE
388.673 148.14 LS
392.915 143.898 LE
388.673 143.898 LS
392.915 148.14 LE
387.794 113.519 LS
393.794 113.519 LE
390.794 116.519 LS
390.794 110.519 LE
388.673 115.641 LS
392.915 111.398 LE
388.673 111.398 LS
392.915 115.641 LE
387.794 108.103 LS
393.794 108.103 LE
390.794 111.103 LS
390.794 105.103 LE
388.673 110.224 LS
392.915 105.981 LE
388.673 105.981 LS
392.915 110.224 LE
394.662 189.352 LS
400.662 189.352 LE
397.662 192.352 LS
397.662 186.352 LE
395.54 191.473 LS
399.783 187.231 LE
395.54 187.231 LS
399.783 191.473 LE
394.662 183.935 LS
400.662 183.935 LE
397.662 186.935 LS
397.662 180.935 LE
395.54 186.057 LS
399.783 181.814 LE
395.54 181.814 LS
399.783 186.057 LE
394.662 151.436 LS
400.662 151.436 LE
397.662 154.436 LS
397.662 148.436 LE
395.54 153.557 LS
399.783 149.314 LE
395.54 149.314 LS
399.783 153.557 LE
394.662 146.019 LS
400.662 146.019 LE
397.662 149.019 LS
397.662 143.019 LE
395.54 148.14 LS
399.783 143.898 LE
395.54 143.898 LS
399.783 148.14 LE
394.662 140.602 LS
400.662 140.602 LE
397.662 143.602 LS
397.662 137.602 LE
395.54 142.724 LS
399.783 138.481 LE
395.54 138.481 LS
399.783 142.724 LE
394.662 108.103 LS
400.662 108.103 LE
397.662 111.103 LS
397.662 105.103 LE
395.54 110.224 LS
399.783 105.981 LE
395.54 105.981 LS
399.783 110.224 LE
394.662 102.686 LS
400.662 102.686 LE
397.662 105.686 LS
397.662 99.6862 LE
395.54 104.807 LS
399.783 100.565 LE
395.54 100.565 LS
399.783 104.807 LE
401.529 183.935 LS
407.529 183.935 LE
404.529 186.935 LS
404.529 180.935 LE
402.408 186.057 LS
406.651 181.814 LE
402.408 181.814 LS
406.651 186.057 LE
401.529 146.019 LS
407.529 146.019 LE
404.529 149.019 LS
404.529 143.019 LE
402.408 148.14 LS
406.651 143.898 LE
402.408 143.898 LS
406.651 148.14 LE
401.529 140.602 LS
407.529 140.602 LE
404.529 143.602 LS
404.529 137.602 LE
402.408 142.724 LS
406.651 138.481 LE
402.408 138.481 LS
406.651 142.724 LE
401.529 97.2695 LS
407.529 97.2695 LE
404.529 100.27 LS
404.529 94.2695 LE
402.408 99.3909 LS
406.651 95.1482 LE
402.408 95.1482 LS
406.651 99.3909 LE
408.397 178.519 LS
414.397 178.519 LE
411.397 181.519 LS
411.397 175.519 LE
409.276 180.64 LS
413.518 176.397 LE
409.276 176.397 LS
413.518 180.64 LE
408.397 173.102 LS
414.397 173.102 LE
411.397 176.102 LS
411.397 170.102 LE
409.276 175.223 LS
413.518 170.981 LE
409.276 170.981 LS
413.518 175.223 LE
408.397 135.186 LS
414.397 135.186 LE
411.397 138.186 LS
411.397 132.186 LE
409.276 137.307 LS
413.518 133.065 LE
409.276 133.065 LS
413.518 137.307 LE
408.397 129.769 LS
414.397 129.769 LE
411.397 132.769 LS
411.397 126.769 LE
409.276 131.891 LS
413.518 127.648 LE
409.276 127.648 LS
413.518 131.891 LE
408.397 97.2695 LS
414.397 97.2695 LE
411.397 100.27 LS
411.397 94.2695 LE
409.276 99.3909 LS
413.518 95.1482 LE
409.276 95.1482 LS
413.518 99.3909 LE
408.397 91.8529 LS
414.397 91.8529 LE
411.397 94.8529 LS
411.397 88.8529 LE
409.276 93.9743 LS
413.518 89.7316 LE
409.276 89.7316 LS
413.518 93.9743 LE
415.265 173.102 LS
421.265 173.102 LE
418.265 176.102 LS
418.265 170.102 LE
416.143 175.223 LS
420.386 170.981 LE
416.143 170.981 LS
420.386 175.223 LE
415.265 167.686 LS
421.265 167.686 LE
418.265 170.686 LS
418.265 164.686 LE
416.143 169.807 LS
420.386 165.564 LE
416.143 165.564 LS
420.386 169.807 LE
415.265 135.186 LS
421.265 135.186 LE
418.265 138.186 LS
418.265 132.186 LE
416.143 137.307 LS
420.386 133.065 LE
416.143 133.065 LS
420.386 137.307 LE
415.265 129.769 LS
421.265 129.769 LE
418.265 132.769 LS
418.265 126.769 LE
416.143 131.891 LS
420.386 127.648 LE
416.143 127.648 LS
420.386 131.891 LE
415.265 124.353 LS
421.265 124.353 LE
418.265 127.353 LS
418.265 121.353 LE
416.143 126.474 LS
420.386 122.231 LE
416.143 122.231 LS
420.386 126.474 LE
415.265 91.8529 LS
421.265 91.8529 LE
418.265 94.8529 LS
418.265 88.8529 LE
416.143 93.9743 LS
420.386 89.7316 LE
416.143 89.7316 LS
420.386 93.9743 LE
415.265 86.4363 LS
421.265 86.4363 LE
418.265 89.4363 LS
418.265 83.4363 LE
416.143 88.5576 LS
420.386 84.315 LE
416.143 84.315 LS
420.386 88.5576 LE
422.132 167.686 LS
428.132 167.686 LE
425.132 170.686 LS
425.132 164.686 LE
423.011 169.807 LS
427.254 165.564 LE
423.011 165.564 LS
427.254 169.807 LE
422.132 162.269 LS
428.132 162.269 LE
425.132 165.269 LS
425.132 159.269 LE
423.011 164.39 LS
427.254 160.148 LE
423.011 160.148 LS
427.254 164.39 LE
422.132 129.769 LS
428.132 129.769 LE
425.132 132.769 LS
425.132 126.769 LE
423.011 131.891 LS
427.254 127.648 LE
423.011 127.648 LS
427.254 131.891 LE
422.132 124.353 LS
428.132 124.353 LE
425.132 127.353 LS
425.132 121.353 LE
423.011 126.474 LS
427.254 122.231 LE
423.011 122.231 LS
427.254 126.474 LE
422.132 118.936 LS
428.132 118.936 LE
425.132 121.936 LS
425.132 115.936 LE
423.011 121.057 LS
427.254 116.815 LE
423.011 116.815 LS
427.254 121.057 LE
422.132 86.4363 LS
428.132 86.4363 LE
425.132 89.4363 LS
425.132 83.4363 LE
423.011 88.5576 LS
427.254 84.315 LE
423.011 84.315 LS
427.254 88.5576 LE
422.132 81.0197 LS
428.132 81.0197 LE
425.132 84.0197 LS
425.132 78.0197 LE
423.011 83.141 LS
427.254 78.8984 LE
423.011 78.8984 LS
427.254 83.141 LE
429 162.269 LS
435 162.269 LE
432 165.269 LS
432 159.269 LE
429.879 164.39 LS
434.121 160.148 LE
429.879 160.148 LS
434.121 164.39 LE
429 156.852 LS
435 156.852 LE
432 159.852 LS
432 153.852 LE
429.879 158.974 LS
434.121 154.731 LE
429.879 154.731 LS
434.121 158.974 LE
429 124.353 LS
435 124.353 LE
432 127.353 LS
432 121.353 LE
429.879 126.474 LS
434.121 122.231 LE
429.879 122.231 LS
434.121 126.474 LE
429 118.936 LS
435 118.936 LE
432 121.936 LS
432 115.936 LE
429.879 121.057 LS
434.121 116.815 LE
429.879 116.815 LS
434.121 121.057 LE
429 113.519 LS
435 113.519 LE
432 116.519 LS
432 110.519 LE
429.879 115.641 LS
434.121 111.398 LE
429.879 111.398 LS
434.121 115.641 LE
429 81.0197 LS
435 81.0197 LE
432 84.0197 LS
432 78.0197 LE
429.879 83.141 LS
434.121 78.8984 LE
429.879 78.8984 LS
434.121 83.141 LE
429 75.6031 LS
435 75.6031 LE
432 78.6031 LS
432 72.6031 LE
429.879 77.7244 LS
434.121 73.4818 LE
429.879 73.4818 LS
434.121 77.7244 LE
435.868 156.852 LS
441.868 156.852 LE
438.868 159.852 LS
438.868 153.852 LE
436.746 158.974 LS
440.989 154.731 LE
436.746 154.731 LS
440.989 158.974 LE
435.868 151.436 LS
441.868 151.436 LE
438.868 154.436 LS
438.868 148.436 LE
436.746 153.557 LS
440.989 149.314 LE
436.746 149.314 LS
440.989 153.557 LE
435.868 118.936 LS
441.868 118.936 LE
438.868 121.936 LS
438.868 115.936 LE
436.746 121.057 LS
440.989 116.815 LE
436.746 116.815 LS
440.989 121.057 LE
435.868 113.519 LS
441.868 113.519 LE
438.868 116.519 LS
438.868 110.519 LE
436.746 115.641 LS
440.989 111.398 LE
436.746 111.398 LS
440.989 115.641 LE
435.868 108.103 LS
441.868 108.103 LE
438.868 111.103 LS
438.868 105.103 LE
436.746 110.224 LS
440.989 105.981 LE
436.746 105.981 LS
440.989 110.224 LE
435.868 75.6031 LS
441.868 75.6031 LE
438.868 78.6031 LS
438.868 72.6031 LE
436.746 77.7244 LS
440.989 73.4818 LE
436.746 73.4818 LS
440.989 77.7244 LE
435.868 70.1865 LS
441.868 70.1865 LE
438.868 73.1865 LS
438.868 67.1865 LE
436.746 72.3078 LS
440.989 68.0652 LE
436.746 68.0652 LS
440.989 72.3078 LE
442.735 151.436 LS
448.735 151.436 LE
445.735 154.436 LS
445.735 148.436 LE
443.614 153.557 LS
447.857 149.314 LE
443.614 149.314 LS
447.857 153.557 LE
442.735 146.019 LS
448.735 146.019 LE
445.735 149.019 LS
445.735 143.019 LE
443.614 148.14 LS
447.857 143.898 LE
443.614 143.898 LS
447.857 148.14 LE
442.735 113.519 LS
448.735 113.519 LE
445.735 116.519 LS
445.735 110.519 LE
443.614 115.641 LS
447.857 111.398 LE
443.614 111.398 LS
447.857 115.641 LE
442.735 108.103 LS
448.735 108.103 LE
445.735 111.103 LS
445.735 105.103 LE
443.614 110.224 LS
447.857 105.981 LE
443.614 105.981 LS
447.857 110.224 LE
442.735 102.686 LS
448.735 102.686 LE
445.735 105.686 LS
445.735 99.6862 LE
443.614 104.807 LS
447.857 100.565 LE
443.614 100.565 LS
447.857 104.807 LE
442.735 70.1865 LS
448.735 70.1865 LE
445.735 73.1865 LS
445.735 67.1865 LE
443.614 72.3078 LS
447.857 68.0652 LE
443.614 68.0652 LS
447.857 72.3078 LE
442.735 64.7699 LS
448.735 64.7699 LE
445.735 67.7699 LS
445.735 61.7698 LE
443.614 66.8912 LS
447.857 62.6485 LE
443.614 62.6485 LS
447.857 66.8912 LE
449.603 146.019 LS
455.603 146.019 LE
452.603 149.019 LS
452.603 143.019 LE
450.482 148.14 LS
454.724 143.898 LE
450.482 143.898 LS
454.724 148.14 LE
449.603 140.602 LS
455.603 140.602 LE
452.603 143.602 LS
452.603 137.602 LE
450.482 142.724 LS
454.724 138.481 LE
450.482 138.481 LS
454.724 142.724 LE
449.603 108.103 LS
455.603 108.103 LE
452.603 111.103 LS
452.603 105.103 LE
450.482 110.224 LS
454.724 105.981 LE
450.482 105.981 LS
454.724 110.224 LE
449.603 102.686 LS
455.603 102.686 LE
452.603 105.686 LS
452.603 99.6862 LE
450.482 104.807 LS
454.724 100.565 LE
450.482 100.565 LS
454.724 104.807 LE
449.603 97.2695 LS
455.603 97.2695 LE
452.603 100.27 LS
452.603 94.2695 LE
450.482 99.3909 LS
454.724 95.1482 LE
450.482 95.1482 LS
454.724 99.3909 LE
449.603 64.7699 LS
455.603 64.7699 LE
452.603 67.7699 LS
452.603 61.7698 LE
450.482 66.8912 LS
454.724 62.6485 LE
450.482 62.6485 LS
454.724 66.8912 LE
449.603 59.3532 LS
455.603 59.3532 LE
452.603 62.3533 LS
452.603 56.3532 LE
450.482 61.4746 LS
454.724 57.2319 LE
450.482 57.2319 LS
454.724 61.4746 LE
456.471 140.602 LS
462.471 140.602 LE
459.471 143.602 LS
459.471 137.602 LE
457.349 142.724 LS
461.592 138.481 LE
457.349 138.481 LS
461.592 142.724 LE
456.471 102.686 LS
462.471 102.686 LE
459.471 105.686 LS
459.471 99.6862 LE
457.349 104.807 LS
461.592 100.565 LE
457.349 100.565 LS
461.592 104.807 LE
456.471 97.2695 LS
462.471 97.2695 LE
459.471 100.27 LS
459.471 94.2695 LE
457.349 99.3909 LS
461.592 95.1482 LE
457.349 95.1482 LS
461.592 99.3909 LE
456.471 53.9366 LS
462.471 53.9366 LE
459.471 56.9366 LS
459.471 50.9366 LE
457.349 56.0579 LS
461.592 51.8153 LE
457.349 51.8153 LS
461.592 56.0579 LE
463.339 135.186 LS
469.339 135.186 LE
466.339 138.186 LS
466.339 132.186 LE
464.217 137.307 LS
468.46 133.065 LE
464.217 133.065 LS
468.46 137.307 LE
463.339 129.769 LS
469.339 129.769 LE
466.339 132.769 LS
466.339 126.769 LE
464.217 131.891 LS
468.46 127.648 LE
464.217 127.648 LS
468.46 131.891 LE
463.339 91.8529 LS
469.339 91.8529 LE
466.339 94.8529 LS
466.339 88.8529 LE
464.217 93.9743 LS
468.46 89.7316 LE
464.217 89.7316 LS
468.46 93.9743 LE
463.339 86.4363 LS
469.339 86.4363 LE
466.339 89.4363 LS
466.339 83.4363 LE
464.217 88.5576 LS
468.46 84.315 LE
464.217 84.315 LS
468.46 88.5576 LE
463.339 53.9366 LS
469.339 53.9366 LE
466.339 56.9366 LS
466.339 50.9366 LE
464.217 56.0579 LS
468.46 51.8153 LE
464.217 51.8153 LS
468.46 56.0579 LE
470.206 129.769 LS
476.206 129.769 LE
473.206 132.769 LS
473.206 126.769 LE
471.085 131.891 LS
475.327 127.648 LE
471.085 127.648 LS
475.327 131.891 LE
470.206 124.353 LS
476.206 124.353 LE
473.206 127.353 LS
473.206 121.353 LE
471.085 126.474 LS
475.327 122.231 LE
471.085 122.231 LS
475.327 126.474 LE
470.206 91.8529 LS
476.206 91.8529 LE
473.206 94.8529 LS
473.206 88.8529 LE
471.085 93.9743 LS
475.327 89.7316 LE
471.085 89.7316 LS
475.327 93.9743 LE
470.206 86.4363 LS
476.206 86.4363 LE
473.206 89.4363 LS
473.206 83.4363 LE
471.085 88.5576 LS
475.327 84.315 LE
471.085 84.315 LS
475.327 88.5576 LE
470.206 81.0197 LS
476.206 81.0197 LE
473.206 84.0197 LS
473.206 78.0197 LE
471.085 83.141 LS
475.327 78.8984 LE
471.085 78.8984 LS
475.327 83.141 LE
477.074 124.353 LS
483.074 124.353 LE
480.074 127.353 LS
480.074 121.353 LE
477.953 126.474 LS
482.195 122.231 LE
477.953 122.231 LS
482.195 126.474 LE
477.074 118.936 LS
483.074 118.936 LE
480.074 121.936 LS
480.074 115.936 LE
477.953 121.057 LS
482.195 116.815 LE
477.953 116.815 LS
482.195 121.057 LE
477.074 86.4363 LS
483.074 86.4363 LE
480.074 89.4363 LS
480.074 83.4363 LE
477.953 88.5576 LS
482.195 84.315 LE
477.953 84.315 LS
482.195 88.5576 LE
477.074 81.0197 LS
483.074 81.0197 LE
480.074 84.0197 LS
480.074 78.0197 LE
477.953 83.141 LS
482.195 78.8984 LE
477.953 78.8984 LS
482.195 83.141 LE
477.074 75.6031 LS
483.074 75.6031 LE
480.074 78.6031 LS
480.074 72.6031 LE
477.953 77.7244 LS
482.195 73.4818 LE
477.953 73.4818 LS
482.195 77.7244 LE
483.942 118.936 LS
489.942 118.936 LE
486.942 121.936 LS
486.942 115.936 LE
484.82 121.057 LS
489.063 116.815 LE
484.82 116.815 LS
489.063 121.057 LE
483.942 113.519 LS
489.942 113.519 LE
486.942 116.519 LS
486.942 110.519 LE
484.82 115.641 LS
489.063 111.398 LE
484.82 111.398 LS
489.063 115.641 LE
483.942 81.0197 LS
489.942 81.0197 LE
486.942 84.0197 LS
486.942 78.0197 LE
484.82 83.141 LS
489.063 78.8984 LE
484.82 78.8984 LS
489.063 83.141 LE
483.942 75.6031 LS
489.942 75.6031 LE
486.942 78.6031 LS
486.942 72.6031 LE
484.82 77.7244 LS
489.063 73.4818 LE
484.82 73.4818 LS
489.063 77.7244 LE
483.942 70.1865 LS
489.942 70.1865 LE
486.942 73.1865 LS
486.942 67.1865 LE
484.82 72.3078 LS
489.063 68.0652 LE
484.82 68.0652 LS
489.063 72.3078 LE
490.809 113.519 LS
496.809 113.519 LE
493.809 116.519 LS
493.809 110.519 LE
491.688 115.641 LS
495.931 111.398 LE
491.688 111.398 LS
495.931 115.641 LE
490.809 108.103 LS
496.809 108.103 LE
493.809 111.103 LS
493.809 105.103 LE
491.688 110.224 LS
495.931 105.981 LE
491.688 105.981 LS
495.931 110.224 LE
490.809 75.6031 LS
496.809 75.6031 LE
493.809 78.6031 LS
493.809 72.6031 LE
491.688 77.7244 LS
495.931 73.4818 LE
491.688 73.4818 LS
495.931 77.7244 LE
490.809 70.1865 LS
496.809 70.1865 LE
493.809 73.1865 LS
493.809 67.1865 LE
491.688 72.3078 LS
495.931 68.0652 LE
491.688 68.0652 LS
495.931 72.3078 LE
490.809 64.7699 LS
496.809 64.7699 LE
493.809 67.7699 LS
493.809 61.7698 LE
491.688 66.8912 LS
495.931 62.6485 LE
491.688 62.6485 LS
495.931 66.8912 LE
497.677 108.103 LS
503.677 108.103 LE
500.677 111.103 LS
500.677 105.103 LE
498.556 110.224 LS
502.798 105.981 LE
498.556 105.981 LS
502.798 110.224 LE
497.677 102.686 LS
503.677 102.686 LE
500.677 105.686 LS
500.677 99.6862 LE
498.556 104.807 LS
502.798 100.565 LE
498.556 100.565 LS
502.798 104.807 LE
497.677 70.1865 LS
503.677 70.1865 LE
500.677 73.1865 LS
500.677 67.1865 LE
498.556 72.3078 LS
502.798 68.0652 LE
498.556 68.0652 LS
502.798 72.3078 LE
497.677 64.7699 LS
503.677 64.7699 LE
500.677 67.7699 LS
500.677 61.7698 LE
498.556 66.8912 LS
502.798 62.6485 LE
498.556 62.6485 LS
502.798 66.8912 LE
497.677 59.3532 LS
503.677 59.3532 LE
500.677 62.3533 LS
500.677 56.3532 LE
498.556 61.4746 LS
502.798 57.2319 LE
498.556 57.2319 LS
502.798 61.4746 LE
504.545 102.686 LS
510.545 102.686 LE
507.545 105.686 LS
507.545 99.6862 LE
505.423 104.807 LS
509.666 100.565 LE
505.423 100.565 LS
509.666 104.807 LE
504.545 97.2695 LS
510.545 97.2695 LE
507.545 100.27 LS
507.545 94.2695 LE
505.423 99.3909 LS
509.666 95.1482 LE
505.423 95.1482 LS
509.666 99.3909 LE
504.545 64.7699 LS
510.545 64.7699 LE
507.545 67.7699 LS
507.545 61.7698 LE
505.423 66.8912 LS
509.666 62.6485 LE
505.423 62.6485 LS
509.666 66.8912 LE
504.545 59.3532 LS
510.545 59.3532 LE
507.545 62.3533 LS
507.545 56.3532 LE
505.423 61.4746 LS
509.666 57.2319 LE
505.423 57.2319 LS
509.666 61.4746 LE
504.545 53.9366 LS
510.545 53.9366 LE
507.545 56.9366 LS
507.545 50.9366 LE
505.423 56.0579 LS
509.666 51.8153 LE
505.423 51.8153 LS
509.666 56.0579 LE
511.412 97.2695 LS
517.412 97.2695 LE
514.412 100.27 LS
514.412 94.2695 LE
512.291 99.3909 LS
516.534 95.1482 LE
512.291 95.1482 LS
516.534 99.3909 LE
511.412 59.3532 LS
517.412 59.3532 LE
514.412 62.3533 LS
514.412 56.3532 LE
512.291 61.4746 LS
516.534 57.2319 LE
512.291 57.2319 LS
516.534 61.4746 LE
511.412 53.9366 LS
517.412 53.9366 LE
514.412 56.9366 LS
514.412 50.9366 LE
512.291 56.0579 LS
516.534 51.8153 LE
512.291 51.8153 LS
516.534 56.0579 LE
grestore
showpage
cleartomark
%%PageTrailer
%%Trailer
end
%%EOF
