    eff_1   THREAD 	    eps_1 	    eps_2 	      Eff 	 maxDepth 	       Time
      150       45 	       50 	       80 	 0.753473 	        2 	 95153.990206
      160       45 	       60 	       80 	 0.726763 	        2 	 94637.014996
      170       45 	       70 	       80 	 0.806049 	        2 	 95348.145629
      180       45 	       80 	       80 	 0.836217 	        2 	 95159.294626
      190       45 	       90 	       80 	 0.819144 	        2 	 95973.765793
