    eff_1   THREAD 	    eps_1 	    eps_2 	      Eff 	 maxDepth 	       Time
      150       25 	       50 	       70 	 0.878504 	        1 	 89028.852896
      160       25 	       60 	       70 	 0.878504 	        1 	 89147.757292
      170       25 	       70 	       70 	 0.878504 	        1 	 89420.821851
      180       25 	       80 	       70 	 0.878504 	        1 	 89702.865076
      190       25 	       90 	       70 	 0.888381 	        2 	 90248.780570
