    eff_1   THREAD 	    eps_1 	    eps_2 	      Eff 	 maxDepth 	       Time
      150       25 	       50 	       50 	 0.878504 	        1 	 89396.981979
      160       25 	       60 	       50 	 0.878504 	        1 	 89481.977624
      170       25 	       70 	       50 	 0.878504 	        1 	 89214.998403
      180       25 	       80 	       50 	 0.878504 	        1 	 89332.412578
      190       25 	       90 	       50 	 0.888381 	        2 	 90044.379870
