    eff_1   THREAD 	    eps_1 	    eps_2 	      Eff 	 maxDepth 	       Time
      150       45 	       50 	       70 	 0.753473 	        2 	 94376.671661
      160       45 	       60 	       70 	 0.726763 	        2 	 94556.885353
      170       45 	       70 	       70 	 0.806049 	        2 	 95916.511546
      180       45 	       80 	       70 	 0.836217 	        2 	 94843.817470
      190       45 	       90 	       70 	 0.819144 	        2 	 95365.588072
