    eff_1   THREAD 	    eps_1 	    eps_2 	      Eff 	 maxDepth 	       Time
      150       25 	       50 	       90 	 0.878504 	        1 	 89178.471895
      160       25 	       60 	       90 	 0.878504 	        1 	 89452.265030
      170       25 	       70 	       90 	 0.878504 	        1 	 89372.366340
      180       25 	       80 	       90 	 0.878504 	        1 	 89572.593511
      190       25 	       90 	       90 	 0.888381 	        2 	 90573.367447
