    eff_1   THREAD 	    eps_1 	    eps_2 	      Eff 	 maxDepth 	       Time
      140      190 	       40 	       70 	 0.624086 	        4 	  29.261878
      160      190 	       60 	       70 	 0.580621 	        4 	  29.691471
      170      190 	       70 	       70 	 0.521360 	        4 	  44.456256
      180      190 	       80 	       70 	 0.374293 	        5 	  44.928101
      190      190 	       90 	       70 	 0.384053 	        6 	  74.832347
