    eff_1   THREAD 	    eps_1 	    eps_2 	      Eff 	 maxDepth 	       Time
      140      190 	       40 	       90 	 0.515882 	        5 	  39.743764
      160      190 	       60 	       90 	 0.514081 	        5 	  45.905257
      170      190 	       70 	       90 	 0.376365 	        5 	  61.324620
      180      190 	       80 	       90 	 0.296844 	        5 	  74.686102
      190      190 	       90 	       90 	 0.213198 	        7 	 142.559306
